{
"autoplayBgm":true,"autoplayBgs":false,"battleback1Name":"","battleback2Name":"","bgm":{"name":"Town1","pan":0,"pitch":100,"volume":50},"bgs":{"name":"","pan":0,"pitch":100,"volume":90},"disableDashing":false,"displayName":"Steinwalden-West","encounterList":[],"encounterStep":30,"height":50,"note":"Haus des Bürgermeisters\nStatue des Bürgermeisters","parallaxLoopX":false,"parallaxLoopY":false,"parallaxName":"","parallaxShow":true,"parallaxSx":0,"parallaxSy":0,"scrollType":0,"specifyBattleback":false,"tilesetId":8,"width":30,
"data":[2816,2816,2816,2816,2840,2896,2848,1632,2848,1633,2832,2816,2816,2816,2816,2816,2820,2844,2844,2824,2816,2820,2844,2844,2824,2816,2816,2816,2816,2816,2816,2816,2816,2816,2840,2896,2848,1632,2848,1633,2832,2816,2816,2816,2820,2844,2854,5411,5414,2856,2844,2854,5411,5414,2856,2844,2824,2816,2816,2816,2816,2816,2816,2816,2840,2896,2848,1632,2848,1633,2834,2844,2844,2844,2854,5411,5414,5417,5420,5411,5410,5414,5417,5420,5411,5414,2832,2816,2816,2816,2816,2816,2816,2816,2840,2896,2848,1632,2860,1633,2848,5411,5410,5410,5414,5413,5413,7050,7050,5409,5408,5412,7050,7050,5413,5413,2832,2816,2816,2816,2816,2816,2816,2816,2840,2896,2848,1640,1643,1633,2848,5409,5408,5408,5412,5421,5417,5419,5422,5416,5416,5416,5419,5422,5420,5421,2832,2816,2816,2816,2816,2816,2816,2816,2840,2896,2848,1656,1632,1633,2848,5417,5416,5416,5420,7042,7042,7042,7042,7042,7042,7042,7042,7042,7042,7046,2832,2816,2816,2816,2816,2816,2816,2816,2840,2896,2833,2852,1632,1633,2848,7043,7042,7042,7046,7040,7040,7040,7040,7040,7040,7040,7040,7040,7040,7044,2832,2816,2816,2816,2816,2816,2816,2816,2840,2896,2856,2841,1632,1633,2848,7041,7040,7040,7044,7048,7048,7048,7048,7048,7048,7048,7048,7048,7048,7052,2832,2816,2816,2816,2816,2816,2816,2816,2840,2905,2901,2848,1640,1643,2848,7049,7048,7048,7052,2850,2836,2836,2836,2852,2906,2859,2849,2838,2836,2836,2817,2816,2816,2816,2844,2844,2824,2816,2818,2852,2896,2848,1656,1632,2857,2849,2849,2849,2849,2845,2844,2844,2844,2854,2905,2886,2900,2832,2816,2816,2816,2816,2816,2816,2068,2084,2856,2844,2844,2841,2896,2835,2861,1632,1633,1633,1633,1633,1633,1633,1633,1633,1633,1633,1633,2880,2888,2832,2816,2816,2816,2816,2816,2816,2076,2058,2068,2068,2084,2848,2896,2848,1633,1640,1641,1641,1641,1641,1641,1641,1643,2859,2849,2861,1633,2880,2888,2832,2816,2816,2816,2816,2816,2816,2852,2088,2056,2048,2072,2848,2896,2833,2852,1656,1657,1657,1657,1657,1657,1657,1640,1641,1641,1641,1643,2880,2888,2832,2816,2816,2816,2816,2816,2816,2822,2861,2064,2052,2086,2848,2896,2856,2846,2849,2849,2849,2849,2849,2849,2853,1656,1657,1657,1657,1632,2880,2888,2832,2816,2816,2816,2816,2816,2816,2840,2082,2053,2086,2851,2855,2905,2897,2897,2897,2897,2897,2897,2897,2901,2857,2849,2838,2836,2852,1632,2880,2888,2832,2816,2816,2816,2816,2816,2816,2854,2064,2072,2851,2855,1624,1625,1625,1625,1625,1626,2850,2836,2852,2905,2897,2901,2856,2824,2840,1632,2880,2888,2832,2820,2844,2844,2844,2824,2816,2068,2053,2086,2848,1624,1635,2082,2068,2084,1633,1634,2856,2844,2846,2849,2861,2905,2901,2832,2840,1632,2880,2888,2856,2841,2946,2932,2948,2832,2816,2048,2072,2850,2842,1632,2858,2088,2056,2050,2084,1636,1625,1625,1625,1625,1626,2858,2896,2832,2840,1640,2904,2902,1643,2848,2928,2912,2936,2832,2816,2048,2072,2832,2840,1632,2835,2861,2064,2048,2072,2859,2861,2083,2093,2858,1634,2848,2896,2832,2840,1656,1560,1562,1632,2860,2952,2940,2950,2856,2824,2052,2086,2832,2840,1632,2848,2082,2049,2048,2050,2069,2081,2087,2859,2855,1634,2848,2896,2856,2826,2852,1556,2862,1640,1641,1641,1641,1641,1641,2856,2072,2850,2817,2840,1632,2848,2064,2048,2048,2052,2086,2858,1644,1641,1641,1642,2848,2905,2901,2832,2822,2861,1556,1656,1657,1657,1657,1657,1657,1657,2072,2832,2816,2840,1632,2848,2088,2056,2052,2086,2850,2842,1634,1649,1649,1650,2833,2852,2896,2832,2840,1556,1556,2850,2836,2836,2836,2836,2836,2836,2072,2832,2816,2840,1632,2857,2861,2066,2086,2859,2845,2854,1634,1657,1657,1658,2832,2840,2896,2834,2854,1556,1556,2856,2844,2844,2844,2844,2844,2844,2072,2832,2816,2840,1640,1641,1641,2080,1641,1641,1641,1641,1642,2850,2836,2836,2817,2840,2896,2860,2994,2980,2980,2980,2980,2980,2980,2980,2980,2980,2072,2856,2824,2840,1648,1649,1649,2483,1649,1649,1649,1649,1650,2832,2816,2816,2816,2840,2905,2909,2976,2960,2960,2960,2960,2960,2960,2960,2960,2960,2050,2084,2832,2840,1656,1657,1657,2483,1657,1657,1657,1657,1658,2832,2816,2816,2816,2818,2836,2852,2976,2960,2964,2988,2988,2988,2988,2988,2988,2988,2048,2072,2856,2826,2837,2861,2082,2051,2068,2084,2859,2838,2836,2817,2816,2816,2820,2844,2844,2854,2976,2960,2984,2907,2897,2897,2897,2897,2897,2897,2048,2050,2084,2832,2840,2082,2049,2048,2048,2050,2084,2832,2816,2816,2816,2816,2840,2898,2884,2900,2976,2960,2984,2850,2852,5171,5170,5170,5174,2850,2048,2048,2072,2856,2841,2064,2048,2048,2048,2048,2072,2834,2844,2844,2844,2824,2840,2880,2864,2888,2976,2960,2984,2832,2840,5177,5176,5176,5180,2832,2048,2048,2050,2084,2860,2064,2048,2048,2048,2052,2086,2848,2898,2884,2900,2832,2840,2904,2892,2902,2976,2960,2984,2832,2840,5747,5746,5746,5750,2832,2076,2056,2048,2050,2068,2049,2048,2052,2076,2086,2851,2855,2880,2864,2888,2856,2846,2849,2849,2861,2976,2960,2984,2832,2840,5753,5752,5752,5756,2832,2852,2088,2076,2056,2048,2048,2048,2072,2859,2849,2855,2899,2893,2892,2894,2897,2897,2897,2897,2909,2976,2960,2984,2832,2818,2836,2852,2906,2850,2817,2818,2836,2852,2088,2056,2052,2076,2086,2907,2897,2897,2903,2850,2836,2836,2836,2836,2836,2836,2852,2976,2960,2984,2832,2816,2816,2840,2896,2832,2816,2816,2816,2818,2852,2088,2086,2850,2836,2836,2836,2836,2836,2817,2816,2816,2816,2816,2816,2816,2840,2976,2960,2984,2856,2844,2844,2854,2896,2856,2844,2816,2816,2816,2818,2836,2836,2817,2820,2844,2844,2844,2844,2824,2816,2816,2816,2816,2816,2816,2840,2976,2960,2984,2907,2897,2897,2897,2895,2909,6834,2816,2820,2844,2844,2844,2844,2844,2854,5411,5410,5410,5414,2832,2816,2816,2816,2816,2816,2816,2840,2976,2960,2984,2850,2836,2852,6834,6820,6820,6801,2816,2840,5411,5410,5410,5410,5410,5414,5409,5408,5408,5412,2832,2816,2816,2816,2816,2816,2816,2840,2976,2960,2984,2832,2816,2840,6816,6800,6800,6800,2816,2840,5409,5408,5408,5408,5408,5412,5417,5416,5416,5420,2834,2844,2844,2844,2824,2816,2816,2840,2976,2960,2984,2832,2816,2840,6816,6800,6800,6800,2816,2840,5417,5416,5416,5416,5416,5420,5794,5794,5794,5798,2848,5411,5410,5414,2832,2816,2816,2840,2976,2960,2984,2832,2816,2840,6816,6800,6800,6800,2816,2840,5795,5794,5794,5794,5794,5798,5792,5792,5792,5796,2848,5417,5416,5420,2832,2820,2844,2854,2976,2960,2984,2832,2816,2840,6840,6828,6828,6808,2816,2840,5793,5792,5792,5792,5792,5796,5800,5800,5800,5804,2848,5795,5794,5798,2832,2840,2994,2980,2961,2960,2984,2832,2816,2840,1656,1657,1657,6816,2816,2840,5801,5800,5800,5800,5800,5804,2907,2901,2850,2836,2842,5801,5800,5804,2832,2840,2976,2960,2960,2960,2984,2832,2816,2818,2836,2836,2852,6840,2816,2818,2836,2836,2836,2836,2836,2836,2852,2896,2856,2824,2840,2898,2900,2850,2817,2840,3000,2968,2960,2960,2984,2832,2816,2816,2816,2816,2840,1656,2816,2816,2816,2816,2816,2816,2816,2816,2840,2905,2901,2832,2840,2880,2888,2832,2816,2818,2852,2976,2960,2960,2984,2834,2844,2844,2844,2844,2826,2836,2816,2816,2816,2816,2820,2844,2844,2824,2818,2852,2896,2832,2840,2880,2888,2834,2844,2844,2854,3000,2968,2960,2984,2848,6834,6820,6820,6836,2856,2844,2816,2816,2816,2816,2840,1627,1627,2832,2816,2840,2896,2856,2854,2880,2888,2860,2898,2884,2884,2900,2976,2960,2984,2848,6816,6800,6800,6802,6820,6820,2816,2816,2816,2816,2840,1627,1627,2832,2816,2840,2905,2897,2897,2893,2894,2897,2893,2892,2892,2902,2976,2960,2984,2848,6816,6800,6800,6800,6800,6800,2816,2816,2816,2816,2818,2836,2836,2817,2816,2818,2836,2836,2836,2836,2836,2836,2836,2836,2836,2852,2976,2960,2984,2848,6816,6800,6800,6800,6804,6828,2816,2816,2816,2816,2816,2816,2816,2816,2816,2816,2816,2816,2816,2816,2816,2816,2816,2816,2816,2840,2976,2960,2984,2848,6816,6800,6800,6804,6838,1658,2816,2816,2816,2816,2816,2816,2816,2816,2816,2816,2816,2816,2816,2816,2816,2816,2816,2816,2816,2840,2976,2960,2984,2848,6816,6800,6800,6824,1658,1633,3804,3814,0,0,0,0,0,0,3040,3506,3516,3516,3516,3516,3516,3516,3516,3516,3516,3516,3516,3516,3516,3516,3516,3516,3516,3516,3513,0,3028,3044,0,0,0,0,0,0,3040,3520,0,3051,3041,3053,0,3819,3821,0,0,3435,3425,3437,0,3582,3054,0,0,0,3520,0,3008,3032,0,0,0,0,0,0,3052,3520,0,0,0,0,0,3578,0,3198,0,3578,0,0,0,0,0,0,3042,3044,3520,0,3008,3032,0,0,0,0,0,0,0,3520,0,0,0,0,0,3580,0,0,0,3568,0,3198,0,0,0,0,3024,3032,3520,0,3036,3046,0,0,0,0,0,0,3434,3520,0,0,0,0,0,0,0,0,0,3580,0,0,0,0,3579,3581,3048,3046,3520,0,0,0,0,3818,0,0,0,0,3436,3520,3434,0,0,0,0,0,0,0,0,0,0,0,0,0,0,0,0,3818,3520,0,0,0,0,3808,0,0,0,0,0,3520,3424,0,0,0,0,0,0,0,0,3198,0,3578,0,0,0,0,0,3808,3520,0,0,0,0,3820,0,0,0,0,0,3520,3436,3198,0,0,0,0,0,0,0,0,0,3580,0,0,0,0,0,3820,3520,0,3041,3053,0,0,0,0,0,0,0,3520,0,3579,3569,3569,3581,0,3819,3809,3809,3821,0,0,0,0,0,0,0,0,3520,0,0,0,0,0,0,0,0,0,0,3520,0,3435,3425,3425,3425,3437,0,0,0,0,0,0,0,0,3051,3041,3053,0,3520,0,0,2186,0,3051,3041,3053,0,3054,0,3529,3521,3521,3521,3521,3521,3521,3521,3521,3521,3521,3525,0,0,0,0,0,0,0,3520,0,0,2188,2235,2214,2228,0,0,0,0,0,3051,3041,3041,3053,0,0,0,3819,3813,0,3520,0,0,0,0,0,0,0,3520,0,0,0,2186,2232,2217,3054,0,0,0,0,0,0,0,0,0,0,0,0,3820,0,3520,0,0,0,0,0,0,0,3520,0,0,0,2185,2189,2236,0,0,3051,3053,0,0,3051,3041,3041,3053,0,0,0,0,0,3520,0,0,0,0,0,0,0,3520,0,0,0,0,0,3819,3821,0,0,0,0,0,0,0,0,0,0,0,0,3818,0,3532,0,0,3531,3521,3521,3521,3521,3527,0,0,2178,2180,0,3054,0,0,0,0,0,0,3819,3809,3821,0,0,0,3054,3808,0,0,0,0,0,0,0,0,0,0,0,0,2184,2182,3050,0,0,2178,2180,2234,0,0,3051,3041,3053,0,0,0,0,3820,0,0,0,0,0,0,0,0,0,0,0,2132,0,3051,3047,0,3054,2184,2182,2233,2237,0,0,0,0,0,0,3050,0,0,0,0,0,0,0,3434,0,0,0,0,0,2134,0,3819,3821,0,0,3822,0,2186,0,0,3054,2227,2237,0,0,3052,0,0,0,0,0,0,0,3436,0,0,0,0,0,0,2142,0,0,0,0,0,2178,2170,0,0,2235,2231,0,0,0,0,0,0,0,0,0,0,0,0,0,0,0,0,0,0,0,0,0,0,0,0,2184,2182,0,0,0,0,0,0,0,0,0,0,0,0,0,0,0,0,0,0,0,0,0,0,0,0,0,0,3050,2238,0,2234,0,3819,3821,0,0,0,0,3050,0,0,3818,0,0,0,0,0,0,0,0,0,0,0,0,0,0,0,3049,3053,0,2236,0,3050,0,0,0,0,0,3052,0,0,3808,0,0,0,0,0,0,0,0,0,0,0,0,3818,0,0,0,0,0,0,0,3052,0,0,0,0,0,0,0,0,3820,0,0,0,0,0,0,0,0,0,0,0,0,3808,0,0,0,0,0,0,0,0,0,0,0,0,0,0,0,0,0,0,0,0,0,0,0,0,0,0,0,0,0,3820,0,0,0,0,0,0,0,0,0,0,0,0,0,0,0,3054,0,0,0,0,0,0,0,0,0,0,0,2132,0,0,0,0,0,0,0,0,2142,0,0,0,0,0,0,3139,3137,3137,3149,0,0,0,0,0,0,0,0,0,0,2120,0,2142,0,0,2186,2130,2116,2132,0,2234,0,0,3042,3028,3044,3136,0,0,0,0,0,0,0,0,0,0,0,0,0,2098,2132,0,0,0,2176,2112,2096,2098,2132,2224,0,0,3048,3036,3046,3136,0,0,0,0,0,0,0,0,0,0,0,0,0,2124,2106,2132,0,0,2188,2112,2100,2124,2134,2236,3818,0,0,0,0,3136,0,0,0,0,0,0,0,0,0,0,0,0,0,0,2136,2134,2186,0,2130,2101,2134,0,0,3819,3815,0,0,0,0,3145,3137,3137,3149,0,0,0,0,0,0,0,0,0,0,0,2187,2177,2171,2130,2101,2134,0,3054,0,0,0,0,0,0,0,0,0,0,0,0,0,0,0,0,0,0,0,0,3810,0,0,0,2188,2136,2134,0,0,0,0,0,0,3051,3041,3053,0,3810,3812,0,0,0,0,0,0,0,0,3050,0,0,3816,0,3810,3812,0,0,0,3819,3821,3054,0,0,0,0,0,0,0,3816,3814,0,0,0,0,0,0,0,3051,3047,0,0,0,0,3816,3814,0,0,0,0,0,0,0,0,0,0,0,0,0,0,0,0,0,0,0,0,0,0,0,0,0,0,0,0,0,0,0,0,0,0,0,0,0,0,0,0,0,0,0,0,0,0,0,0,0,0,0,0,0,0,0,0,0,0,0,0,0,0,0,0,0,0,0,0,0,3147,3137,3137,3137,3141,0,0,0,0,0,0,0,3818,0,0,0,0,0,0,0,0,0,0,0,0,0,0,0,0,0,0,0,0,0,3136,0,0,0,0,0,0,0,3820,3050,0,0,0,0,0,0,0,0,0,0,0,0,0,0,0,0,0,0,0,0,3136,3818,0,3050,0,0,0,0,0,3040,0,0,0,0,0,0,0,0,0,0,0,0,0,0,0,0,0,0,0,0,3136,3820,0,3052,0,0,0,0,0,3052,0,0,0,0,0,3146,0,0,0,0,0,0,0,0,0,0,0,0,0,0,3136,0,0,0,0,0,0,0,0,0,0,0,0,0,0,3136,0,0,0,0,0,0,0,0,0,0,3050,0,0,0,3136,3818,0,0,0,0,0,3050,0,0,0,3043,3053,0,0,3136,0,3042,3044,0,0,0,0,0,0,0,3040,0,0,0,3136,3820,0,0,0,0,0,3040,0,0,0,3052,3818,0,0,3136,0,3048,3046,0,0,3050,0,0,0,0,3052,0,0,0,3136,0,0,0,0,0,0,3052,0,0,3819,3809,3815,0,0,3136,0,0,0,0,0,3040,0,0,0,3050,0,0,0,0,3148,0,0,0,0,0,0,0,0,0,0,0,0,0,0,3136,3050,0,0,0,0,3052,0,0,0,3052,0,0,0,0,0,0,0,0,0,0,0,0,0,0,0,0,0,0,0,3136,3049,3053,0,0,0,0,0,0,0,0,0,0,0,0,0,0,0,0,0,0,0,3818,0,0,0,0,0,0,0,3145,3137,3137,3137,3137,3137,3137,3137,3137,3137,3137,3137,3137,3137,3137,3149,0,3819,3821,0,0,0,3820,0,0,0,0,0,0,0,0,0,0,0,0,0,0,3051,3041,3053,0,0,0,0,3042,3044,0,0,0,0,0,0,0,0,0,0,0,0,0,0,0,0,0,0,0,0,0,0,0,0,0,0,0,0,3024,3032,0,0,0,0,0,0,0,0,0,0,0,0,0,0,0,0,0,0,0,0,0,0,0,0,0,0,0,0,0,0,0,0,0,0,0,0,0,0,0,0,0,0,149,0,0,0,0,0,0,0,376,0,0,0,0,0,0,0,0,0,0,0,0,0,0,0,0,0,0,0,0,0,149,0,0,0,371,0,0,0,0,0,0,0,0,0,0,0,0,0,0,0,0,0,0,0,0,0,0,0,0,0,149,0,0,378,376,0,0,0,0,0,0,0,0,0,0,0,0,0,0,0,0,0,0,0,0,0,0,0,0,0,149,0,371,376,377,0,0,0,0,0,0,0,0,0,0,0,0,174,0,0,0,0,0,0,0,0,0,0,0,0,149,378,379,378,376,0,0,0,0,0,0,0,0,0,0,0,0,0,0,0,0,30,0,0,0,173,0,0,0,0,149,376,377,0,377,0,0,0,0,0,0,0,0,0,0,0,0,60,0,0,0,0,0,0,0,0,0,0,0,0,149,376,377,0,376,0,0,0,0,0,0,0,0,0,0,0,0,0,0,0,0,0,0,0,0,0,0,0,0,0,149,377,0,0,0,0,0,0,0,0,0,0,0,0,0,0,0,0,0,0,0,0,0,0,0,0,0,0,0,0,149,0,0,0,0,0,0,0,0,0,0,0,0,0,0,0,0,0,0,0,0,0,0,0,0,0,0,0,0,0,149,0,0,0,0,0,0,0,0,0,0,0,0,0,0,0,0,0,0,0,0,0,0,0,0,0,0,0,0,0,149,0,0,0,0,0,0,0,0,0,0,0,0,0,0,0,0,0,0,0,0,0,0,0,0,0,0,0,0,0,149,0,0,0,0,0,0,0,0,0,0,0,0,0,0,0,0,0,0,0,0,0,0,0,0,0,0,0,0,0,149,0,0,0,0,0,0,0,0,0,0,0,0,0,0,0,0,0,0,0,0,0,0,0,0,0,0,0,0,0,149,0,0,0,0,0,0,0,0,0,0,0,0,0,0,0,0,0,0,0,0,0,0,0,0,0,0,0,0,0,149,0,0,0,0,0,0,0,0,0,0,0,0,0,0,0,0,0,0,0,0,0,0,0,330,0,0,0,0,0,149,0,0,0,0,0,0,0,0,0,0,0,0,0,0,0,0,0,0,0,0,0,0,0,0,0,0,521,0,0,149,0,0,0,0,0,0,0,0,0,0,0,0,0,0,0,0,0,0,0,0,0,0,0,0,0,0,529,0,0,149,0,0,0,0,0,0,0,0,0,0,0,0,0,0,0,0,0,0,0,332,0,0,0,0,0,0,0,0,0,149,0,0,0,0,0,0,0,0,0,0,0,0,0,0,0,0,0,0,0,0,0,0,0,0,0,0,0,0,0,0,0,0,0,0,0,0,0,0,0,0,0,0,0,0,0,0,0,0,0,0,0,0,0,0,0,0,0,0,0,0,0,0,0,0,0,0,0,0,0,0,0,0,0,0,0,0,0,0,0,0,0,0,0,358,0,0,0,0,0,0,0,0,0,0,0,0,0,0,0,0,0,0,0,0,0,0,376,0,0,0,0,0,0,0,0,0,0,0,0,0,0,0,0,0,0,0,0,0,0,0,0,0,0,376,377,376,0,0,0,0,0,0,0,0,0,0,0,0,0,0,0,0,0,0,0,0,0,0,0,0,0,0,0,0,376,0,0,0,0,0,0,0,0,0,0,0,0,0,0,0,0,0,0,0,0,0,0,0,0,0,0,0,0,0,0,0,0,0,0,0,0,0,0,0,0,0,0,0,0,0,0,0,0,0,0,0,0,0,0,0,0,0,0,0,0,0,0,0,0,0,0,0,0,0,0,0,0,0,0,0,0,0,0,0,0,0,0,0,0,0,0,0,0,0,0,0,0,0,0,0,0,0,0,0,0,0,0,0,0,149,0,0,0,0,0,0,0,0,0,0,0,0,0,0,0,0,0,0,0,0,0,0,0,0,0,0,0,0,0,149,0,0,0,0,0,0,0,0,0,0,0,0,0,0,0,0,0,0,0,0,0,0,0,0,0,0,0,0,0,149,0,0,0,0,0,0,0,0,0,0,0,0,0,0,0,0,0,0,0,0,0,0,0,0,0,0,300,300,0,149,149,0,0,0,0,0,0,0,0,0,0,0,0,0,0,0,0,0,0,0,0,0,0,0,0,0,0,0,0,149,149,0,0,0,0,0,0,0,0,0,0,0,0,0,0,0,0,0,0,0,0,0,0,0,0,0,0,0,0,149,149,0,0,0,0,0,0,0,0,0,0,0,0,0,0,0,0,0,0,0,0,0,0,0,0,0,0,0,0,0,149,0,0,0,0,0,0,0,0,0,0,0,0,0,0,0,0,0,0,0,0,0,0,0,0,0,0,0,0,0,149,0,0,0,0,0,0,0,0,0,0,0,0,0,0,0,0,0,0,0,0,0,0,0,0,0,0,0,0,0,149,0,0,0,0,0,0,0,0,0,0,0,0,0,0,0,0,0,0,0,0,0,0,0,0,0,0,0,0,0,149,0,0,0,0,0,0,0,0,0,0,0,0,0,0,0,0,0,0,0,0,0,0,0,0,0,0,0,0,0,149,0,0,0,0,0,0,0,0,0,0,0,0,0,0,0,0,0,0,0,0,0,0,0,0,0,0,0,0,0,149,0,0,0,0,0,0,0,0,0,0,0,0,0,0,0,0,0,0,0,0,0,0,0,0,0,0,0,0,0,149,0,0,72,0,0,72,0,0,0,0,0,0,0,0,0,0,0,0,0,0,0,0,0,0,0,0,0,0,0,149,0,0,0,0,0,0,0,0,0,0,0,0,0,0,0,0,0,0,0,0,32,0,0,0,0,0,0,149,0,149,0,0,0,0,0,0,0,0,0,0,0,0,0,0,0,0,0,0,0,0,0,0,0,0,0,0,0,0,0,149,0,0,0,0,0,0,0,0,0,0,0,0,0,0,0,0,0,0,0,0,0,0,0,0,0,0,0,0,149,149,0,0,0,0,0,0,0,0,353,0,0,0,0,0,0,0,0,0,0,0,0,0,0,0,0,0,0,0,0,149,0,0,0,0,0,0,0,0,0,0,0,0,0,0,0,0,0,0,0,0,0,0,0,0,0,0,0,0,0,149,0,0,0,0,0,0,0,0,0,0,0,0,0,0,0,0,0,0,0,0,0,0,0,0,0,0,0,0,0,149,0,0,0,0,0,0,0,0,0,0,0,0,0,0,0,0,0,0,0,0,0,0,0,0,0,0,0,0,0,149,0,0,0,0,0,0,0,0,0,0,0,0,0,0,0,0,0,0,0,0,0,0,0,0,0,0,0,0,0,149,149,149,149,149,149,149,149,0,0,149,149,149,149,149,149,149,149,149,149,0,0,0,149,0,0,0,0,0,0,370,371,370,371,369,0,0,368,369,0,0,0,0,0,0,0,0,0,0,0,0,0,0,0,0,0,0,0,0,141,378,379,378,379,377,0,0,349,377,0,0,172,435,801,0,0,0,0,0,0,345,0,0,0,443,361,0,0,0,141,370,371,370,368,369,0,0,357,349,0,0,0,0,0,427,0,0,0,802,0,444,0,0,444,0,0,0,0,0,141,378,379,368,369,377,0,0,349,357,0,0,0,0,0,0,0,0,58,58,0,444,0,58,58,0,0,439,427,0,141,370,368,369,368,369,0,0,357,355,0,0,448,104,448,448,0,813,0,0,0,452,444,0,0,0,0,0,801,0,141,368,369,368,369,377,803,349,0,358,0,0,456,448,456,456,29,30,30,30,30,460,30,30,30,30,31,132,0,0,141,368,369,376,368,369,0,357,0,0,0,801,29,30,30,31,0,449,58,58,0,0,0,58,58,181,448,132,0,0,141,369,368,369,349,377,0,348,0,356,0,0,0,60,60,0,449,457,449,0,184,51,0,0,0,448,456,0,344,0,141,349,376,377,357,0,0,0,0,0,0,0,0,0,0,0,133,439,0,0,0,0,830,187,0,0,0,435,0,0,141,357,0,0,348,0,0,0,0,349,0,0,0,443,0,0,427,0,847,0,351,0,0,0,0,800,0,443,0,0,141,0,0,358,0,0,355,0,427,357,0,0,0,0,0,0,0,0,424,0,0,0,352,443,0,424,0,0,0,0,141,0,0,0,0,0,0,0,0,0,0,351,353,346,358,0,0,353,432,0,433,0,0,0,0,432,331,424,0,0,141,355,0,0,0,368,369,0,332,0,0,0,0,0,0,368,369,0,354,0,0,0,640,641,642,433,0,432,0,0,141,0,0,0,0,376,377,0,0,0,0,358,0,352,0,376,377,0,0,0,349,0,438,0,0,0,0,0,344,0,141,0,0,0,445,0,0,0,0,0,0,801,0,0,0,0,0,0,0,0,357,0,0,0,0,368,369,0,0,0,141,0,0,0,0,0,0,0,0,0,349,0,368,369,427,0,0,800,352,0,0,0,0,0,449,376,377,513,0,0,141,0,0,349,0,0,368,369,0,0,357,0,376,377,0,0,0,0,0,0,355,0,332,0,346,0,181,173,438,346,141,0,0,357,0,349,376,377,0,0,346,368,369,0,356,0,0,0,0,0,0,0,0,0,0,0,439,181,0,0,141,447,0,0,0,357,347,352,0,0,0,376,377,0,353,349,0,349,0,368,369,0,0,0,0,427,0,443,173,0,141,0,349,0,0,0,358,0,0,446,0,0,0,354,0,357,352,357,0,376,377,0,0,165,0,0,0,0,0,344,149,0,357,0,354,353,0,0,0,0,0,0,332,358,0,353,0,0,0,0,354,0,165,0,0,0,0,0,0,0,0,0,352,0,0,0,349,0,0,0,0,368,369,0,0,0,0,368,369,800,356,0,0,0,85,0,0,0,0,0,0,0,427,0,332,0,357,355,0,346,351,376,377,0,368,369,368,369,377,0,0,358,0,0,93,0,0,0,0,0,0,0,0,0,0,353,0,0,0,354,0,0,0,346,349,368,369,377,0,0,329,0,0,0,0,0,0,0,0,0,0,0,358,0,434,0,0,0,0,0,0,0,0,0,357,349,377,0,0,0,0,0,33,40,40,0,40,40,0,40,40,0,0,0,0,0,349,0,0,0,0,0,0,0,0,357,0,0,801,0,0,0,32,0,0,0,0,0,0,0,0,0,0,0,354,0,357,0,0,0,0,358,0,0,0,352,0,0,0,0,0,0,32,0,0,0,0,0,0,0,141,447,0,0,368,369,0,0,0,0,0,0,332,348,0,0,808,0,189,190,344,0,0,0,0,0,0,0,0,0,141,0,446,0,376,377,0,0,0,446,0,0,349,0,789,800,0,0,197,198,0,0,32,0,0,142,0,0,0,0,141,0,0,0,0,358,0,0,445,0,0,0,357,0,797,0,349,0,205,206,0,0,32,0,0,357,0,292,292,0,141,141,0,0,0,0,0,0,0,0,0,0,800,0,0,801,357,0,0,0,0,0,0,0,0,347,349,811,812,0,141,141,0,0,0,0,447,0,0,787,788,0,800,0,0,0,0,0,803,0,0,0,32,0,0,0,357,0,0,0,141,141,0,0,0,0,0,0,0,0,0,0,0,0,808,0,0,0,0,0,358,0,32,0,0,800,0,353,0,331,141,141,0,808,0,0,0,0,0,0,0,801,0,368,369,0,0,0,800,0,0,0,0,0,0,0,333,333,0,141,149,141,801,0,0,800,0,349,0,0,0,0,0,376,377,349,351,0,0,0,85,0,32,0,85,0,803,0,0,149,0,141,368,369,0,0,349,357,349,0,0,0,0,358,800,357,0,0,368,369,93,0,32,0,93,358,0,0,0,0,0,141,376,0,0,0,0,0,0,0,0,104,0,0,0,368,369,0,376,377,0,0,0,0,0,0,0,0,0,0,0,141,800,0,58,0,0,58,0,0,0,0,0,368,369,376,377,0,349,801,0,0,32,0,800,0,0,0,0,0,0,141,349,0,0,0,0,0,0,0,0,66,0,376,0,0,0,0,357,0,808,0,32,0,0,801,0,0,0,0,0,141,357,0,64,0,0,64,0,0,0,74,0,362,0,0,0,0,358,1008,1009,0,0,0,0,0,141,0,0,0,0,141,0,0,154,448,448,154,0,0,43,0,0,362,0,0,0,0,0,1016,1017,0,32,0,0,351,149,0,141,141,0,141,0,349,448,456,456,448,448,156,0,368,369,352,0,0,0,0,0,0,0,0,36,0,800,0,0,0,149,141,0,141,0,357,358,787,788,0,352,0,0,376,377,0,0,197,198,0,800,0,0,0,0,0,0,0,0,141,0,149,141,141,0,358,0,0,0,0,0,353,0,0,352,0,0,0,0,0,0,0,0,0,32,0,0,0,801,149,0,800,141,141,0,352,0,0,0,352,0,0,349,0,368,369,803,0,352,0,330,830,0,0,32,0,0,0,0,0,0,0,149,141,0,0,351,0,355,355,0,349,357,0,376,377,0,0,0,353,0,0,0,0,191,0,0,0,0,0,0,0,0,141,0,0,0,353,355,355,352,357,353,0,0,0,0,0,0,0,0,0,0,0,32,0,801,0,0,0,0,0,0,141,0,0,0,0,0,0,0,0,0,0,0,0,0,0,0,0,0,801,329,0,32,0,0,0,0,0,0,0,0,141,141,141,141,141,141,141,141,345,0,141,141,141,141,141,141,141,141,141,141,0,0,0,141,0,0,0,0,0,141,141,141,141,141,141,141,141,141,141,141,141,141,141,141,141,141,141,141,141,141,0,32,0,141,0,0,0,0,141,149,0,0,0,0,0,0,0,0,0,0,0,0,0,0,0,0,0,0,0,0,0,0,0,0,0,0,0,0,0,0,0,0,0,0,0,0,0,0,0,0,0,0,0,0,0,0,0,0,0,0,0,0,0,0,0,0,0,0,0,0,0,0,0,0,0,0,0,0,0,0,0,0,0,0,0,0,0,0,0,0,0,0,0,0,0,0,0,0,0,0,0,0,0,0,0,0,0,0,0,0,0,0,0,0,0,0,0,0,0,0,0,0,0,0,0,0,13,0,0,0,0,0,0,0,0,0,0,0,0,0,0,0,0,0,0,0,0,0,0,0,0,0,0,0,0,0,15,5,0,0,0,0,0,0,0,0,0,0,0,0,0,0,0,0,0,0,0,0,0,0,0,0,0,0,0,0,15,5,0,0,0,0,0,0,0,0,0,0,0,0,0,0,0,0,0,0,0,0,0,0,0,0,0,0,0,0,15,5,0,0,0,0,0,0,0,0,0,0,0,0,0,0,0,0,0,0,0,0,0,0,0,0,0,0,0,0,7,0,0,0,0,0,0,0,0,0,0,0,0,0,0,0,0,0,0,0,0,0,0,0,0,0,0,0,0,0,0,0,0,0,0,0,0,0,0,0,0,0,0,0,0,0,0,0,0,0,0,0,0,0,0,0,0,0,0,0,0,0,0,0,0,0,0,0,0,0,0,0,0,0,0,0,0,0,0,0,0,0,0,0,0,0,0,0,0,0,0,0,0,0,0,0,0,0,0,0,0,0,0,0,0,0,0,0,0,0,0,0,0,0,0,0,0,0,0,0,0,0,0,0,0,0,0,0,0,0,0,0,0,0,0,0,0,0,0,0,0,0,0,0,0,0,0,0,0,0,0,0,0,0,0,0,0,0,0,0,0,0,0,0,0,0,0,0,0,0,0,0,0,0,0,0,0,0,0,0,0,0,0,0,0,0,0,0,0,0,0,0,0,0,0,0,0,0,0,0,0,0,0,0,0,0,0,0,0,0,0,0,0,0,0,0,0,0,0,0,0,0,0,0,0,4,0,0,0,0,0,0,0,0,0,0,0,0,0,0,0,0,0,0,0,0,0,0,0,0,0,0,0,0,0,5,0,0,0,0,0,0,0,0,0,0,0,0,0,0,0,0,0,0,0,0,0,0,0,0,0,0,0,0,0,0,0,0,0,0,0,0,0,0,0,0,0,0,0,0,0,0,0,0,0,0,0,0,0,0,0,0,0,0,0,0,0,0,0,0,0,0,0,0,0,0,0,0,0,0,0,0,0,0,0,0,0,0,0,0,0,0,0,0,0,0,0,0,0,0,5,0,0,0,0,0,0,0,0,0,0,0,0,0,0,0,0,0,0,0,0,0,0,0,0,0,0,0,0,0,5,0,0,0,0,0,0,0,0,0,0,0,0,0,0,0,0,0,0,0,0,0,0,0,0,0,0,4,0,0,5,0,0,0,0,0,0,0,0,0,0,0,0,0,0,0,0,0,0,0,0,0,0,0,0,0,0,5,0,0,0,0,0,0,0,0,0,0,0,0,0,0,0,0,0,0,0,0,0,0,0,0,0,0,0,0,0,5,0,0,0,0,0,0,0,0,0,0,0,0,0,0,0,0,0,0,0,0,0,0,0,0,0,0,0,0,0,5,0,0,0,0,0,0,0,0,0,0,0,0,0,0,0,0,0,0,0,0,0,0,0,0,0,0,0,0,0,5,0,0,0,0,0,0,0,0,0,0,0,0,0,0,0,0,0,0,0,0,0,0,0,0,0,0,0,0,0,0,0,0,0,0,0,0,0,0,0,0,0,0,0,0,0,0,0,0,0,0,0,0,0,0,0,0,0,0,0,0,0,0,0,0,0,0,0,0,0,0,0,0,0,0,0,0,0,0,0,0,0,0,0,0,0,0,0,0,0,0,0,0,0,0,0,0,0,0,0,0,0,0,0,0,0,15,0,0,0,0,0,0,0,0,0,0,0,0,0,0,0,0,0,0,0,0,0,0,0,0,0,0,0,0,0,15,0,0,0,0,0,0,0,0,0,0,0,0,0,0,0,0,0,0,0,0,0,0,0,0,0,0,0,0,0,15,0,0,0,0,0,0,0,0,0,0,0,0,0,0,0,0,0,0,0,0,0,0,0,0,0,0,0,0,0,0,0,0,0,0,0,0,0,0,0,0,0,0,0,0,0,0,0,0,0,0,0,0,0,0,0,0,0,0,0,0,0,0,0,0,0,0,0,0,0,0,0,0,0,0,0,0,0,0,0,0,0,0,0,0,0,0,0,0,0,0,0,0,0,0,0,0,0,0,0,0,0,0,0,0,0,0,0,0,0,0,0,0,0,0,0,0,0,0,0,0,0,0,0,0,0,0,0,0,0,0,0,0,0,0,0,0,0,0,0,0,0,0,0,0,0,0,0,0,0,0,0,0,0,0,0,0,0,0,0,0,0,0,15,0,0,0,0,0,0,0,0,0,0,0,0,0,0,0,0,0,0,0,0,0,0,0,0,0,0,0,0,0,15,0,0,0,0,0,0,0,0,0,0,0,0,0,0,0,0,0,0,0,0,0,0,0,0,0,5,0,0,0,15,0,0,0,0,0,0,0,0,0,0,0,0,0,0,0,0,0,0,0,0,0,0,0,0,0,5,0,0,0,15,0,0,0,15,0,0,0,0,0,0,0,0,0,0,0,0,0,0,0,0,0,0,0,0,0,5,0,0,0,7,0,0,0,15,0,0,0,0,0,0,0,0,0,0,0,0,0,0,0,0,0,0,0,0,0,5,0,0,0,0,0,0,0,15,0,0,0,0,0,0,0,0,0,0,0,0,0,0,0,0,0,0,0,0,0,0,0,0,0,0,0,0,0,0,0,0,0,0,0,0,0,0,0,0,0,0,0,0,0,0,0,0,0,0,0,0,0,0,0,0,0,0,0,0,0,0,0,0,0,0,0,0,0,0,0,0,0,0,0,0,0,0,0,0,0,0,0,0,0,0,0,0,0,0,0,0,0,0,0,0,0,0,0,0,0,0,0,0,0,0,0,0,0,0,0,0,0,0,0,0,0,0,0,0,0,0,0,0,0,0,0,0,0,0,0,0,0,0,0,0,0,0,0,0,0,0,0,0,0,0,0,0,0,0,0,0,0,0,0,0,0,0,0,0,0,0,0,0,0,0,0,0,0,0,0,0,0,0,0,0,0,0,0,0,0,0,0,0,0,0,0,0,0,0,0,0,0,0,0,0,0,0,0,0,0,0,0,0,0,0,0,0,0,0,0,0,0,0,0,0,0,0,0,0,0,0,5,0,0,0,0,0,0,0,0,0,0,0,0,0,0,0,0,0,0,0,0,0,0,0,0,0,0,0,0,5,0,0,0,0,0,0,0,0,0,0,0,0,0,0,0,0,0,0,0,0,0,0,0,0,0,0,0,0,0,0,0,0,0,0,0,0,0,0,0,0,0,0,0,0,0,0,0,0,0,0,0,0,0,0,0,0,0,0,0,0,0,0,0,0,0,0,0,0,0,0,0,0,0,0,0,0,0,0,0,0,0,0,0,0,0,0,0,0,0,0,0,0,0,0,0,0,0,0,0,0,0,0,0,0,0,0,0,0,0,0,0,0,0,0,0,0,0,0,0,0,0,0,0,0,0,0,0,0,0,0,0,0,0,0,0,0,0,0,0,0,0,0,0,0,0,0,0,0,0,0,0,0,0,0,0,0,0,0,0,0,0,0,0,0,0,0,0,0,0,0,0,0,0,0,0,0,0,0,0,0,0,0,0,0,0,0,0,0,0,0,0,0,0,0,0,0,0,0,0,0,0,0,0,0,0,0,0,0,0,0,0,0,0,0,0,0,0,0,0,0,0,0,0,0,0,0,0,0,0,0,0,0,0,0,0,0,0,0,0,0,0,0,0,0,0,0,0,0,0,0,0,0,0,0,0,0,0,0,0,0,0,0,0,0,0,0,0,0,0,0,0,255,255,255,255,0,0,0,0,0,0,0,0,0,0,0,0,0,0,0,0,0,0,0,0,0,0,0,0,0,0,255,255,255,255,255,255,0,0,0,0,0,0,0,0,0,0,0,0,0,0,0,0,0,0,0,0,0,0,0,0,255,255,255,255,255,255,255,0,0,0,0,0,0,0,0,0,0,0,0,0,0,0,0,0,0,0,0,0,0,0,255,255,255,255,255,255,255,0,0,0,0,0,0,0,0,0,0,0,0,0,0,0,0,0,0,0,0,0,0,0,255,255,255,255,255,255,255,0,0,0,0,0,0,0,0,0,0,0,0,0,0,0,0,0,0,0,0,0,0,0,255,255,255,255,255,255,0,0,0,0,0,0,0,0,0,0,0,0,0,0,0,0,0,0,0,0,0,0,0,0,255,255,255,255,255,0,0,0,0,0,0,0,0,0,0,0,0,0,0,0,0,0,0,0,0,0,0,0,0,0,255,255,255,255,0,0,0,0,0,0,0,0,0,0,0,0,0,0,0,0,0,0,0,0,0,0,0,0,0,0,255,255,255,255,0,0,0,0,0,0,0,0,0,0,0,0,0,0,0,0,0,0,0,0,0,0,0,0,0,0,255,255,255,255,0,0,0,0,0,0,0,0,0,0,0,0,0,0,0,0,0,0,0,0,0,0,0,0,0,0,255,255,255,255,0,0,0,0,0,0,0,0,0,0,0,0,0,0,0,0,0,0,0,0,0,0,0,0,0,0,255,255,255,255,0,0,0,0,0,0,0,0,0,0,0,0,0,0,0,0,0,0,0,0,0,0,0,0,0,0,255,255,255,255,0,0,0,0,0,0,0,0,0,0,0,0,0,0,0,0,0,0,0,0,0,0,0,0,0,0,255,255,255,255,0,0,0,0,0,0,0,0,0,0,0,0,0,0,0,0,0,0,0,0,0,0,0,0,0,0,255,255,255,255,0,0,0,0,0,0,0,0,0,0,0,0,0,0,0,0,0,0,0,0,0,0,0,0,0,0,255,255,255,255,0,0,0,0,0,0,0,0,0,0,0,0,0,0,0,0,0,0,0,0,0,0,0,0,0,0,255,255,255,255,0,0,0,0,0,0,0,0,0,0,0,0,0,0,0,0,0,0,0,0,0,0,0,0,0,0,255,255,255,255,255,255,255,255,255,255,255,255,0,0,0,0,0,0,0,0,0,0,0,0,0,0,0,0,0,0,255,255,255,255,255,255,255,255,255,255,255,255,255,0,0,0,0,0,0,0,0,0,0,0,0,0,0,0,0,0,255,255,255,255,255,255,255,255,255,255,255,255,255,0,0,0,0,0,0,0,0,0,0,0,0,0,0,0,0,0,255,255,255,255,255,255,255,255,255,255,255,255,255,0,0,0,0,0,0,0,0,0,0,0,0,0,0,0,0,0,255,255,255,255,255,255,255,255,255,255,255,255,255,0,0,0,0,0,0,0,0,0,0,0,0,0,0,0,0,0,255,255,255,255,255,255,255,255,255,255,255,255,255,0,0,0,0,0,0,0,0,0,0,0,0,0,0,0,0,0,255,255,255,255,255,255,255,255,255,255,255,255,0,0,0,0,0,0,0,0,0,0,0,0,0,0,0,0,0,0,255,255,255,255,255,255,255,255,255,255,0,0,0,0,0,0,0,0,0,0,0,0,0,0,0,0,0,0,0,0,0,0,255,255,255,255,255,255,255,0,0,0,0,0,0,0,0,0,0,0,0,0,0,0,0,0,0,0,0,0,0,0,0,255,255,255,255,255,0,0,0,0,0,0,0,0,0,0,0,0,0,0,0,0,0,0,0,0,0,0,0,0,0,0,0,0,0,0,0,0,0,0,0,0,0,0,0,0,0,0,0,0,0,0,0,0,0,0,0,0,0,0,0,0,0,0,0,0,0,0,0,0,0,0,0,0,0,0,0,0,0,0,0,0,0,0,0,0,0,0,0,0,0,0,0,0,0,0,0,0,0,0,0,0,0,0,0,0,0,0,0,0,0,0,0,0,0,0,0,0,0,0,0,0,0,0,0,0,0,0,0,0,0,0,0,0,0,0,0,0,0,0,0,0,0,0,0,0,0,0,0,0,0,0,0,0,0,0,0,0,0,0,0,0,0,0,0,0,0,0,0,0,0,0,0,0,0,0,0,0,0,0,0,0,0,0,0,0,0,0,0,0,0,0,0,0,0,0,0,0,0,0,0,0,0,0,0,0,0,0,0,0,0,0,0,0,0,0,0,0,0,0,0,0,0,0,0,0,0,0,0,0,0,0,0,0,0,0,0,0,0,0,0,0,0,0,0,0,0,0,0,0,0,0,0,0,0,0,0,0,0,0,0,0,0,0,0,0,0,0,0,0,0,0,0,0,0,0,0,0,0,0,0,0,0,0,0,0,0,0,0,0,0,0,0,0,0,0,0,0,0,0,0,0,0,0,0,0,0,0,0,0,0,0,0,0,0,0,0,0,0,0,0,0,0,0,0,0,0,0,0,0,0,0,0,0,0,0,0,0,0,0,0,0,0,0,0,0,0,0,0,0,0,0,0,0,0,0,0,0,0,0,0,0,0,0,0,0,0,0,0,0,0,0,0,0,0,0,0,0,0,0,0,0,0,0,0,0,0,0,0,0,0,0,0,0,0,0,0,0,0,0,0,0,0,0,0,0,0,0,0,0,0,0,0,0,0,0,0,0,0,0,0,0,0,0,0,0,0,0,0,0,0,0,0,0,0,0,0,0,0,0,0,0,0,0,0,0,0,0],
"events":[
null,
{"id":1,"name":"EV001","note":"","pages":[{"conditions":{"actorId":1,"actorValid":false,"itemId":1,"itemValid":false,"selfSwitchCh":"A","selfSwitchValid":false,"switch1Id":28,"switch1Valid":true,"switch2Id":1,"switch2Valid":false,"variableId":1,"variableValid":false,"variableValue":0},"directionFix":false,"image":{"characterIndex":0,"characterName":"","direction":2,"pattern":0,"tileId":0},"list":[{"code":101,"indent":0,"parameters":["SF_People1",2,0,2]},{"code":401,"indent":0,"parameters":["Das ist nur ein Haufen Müll."]},{"code":0,"indent":0,"parameters":[]}],"moveFrequency":3,"moveRoute":{"list":[{"code":0,"parameters":[]}],"repeat":true,"skippable":false,"wait":false},"moveSpeed":3,"moveType":0,"priorityType":1,"stepAnime":false,"through":false,"trigger":0,"walkAnime":true}],"x":17,"y":9},
{"id":2,"name":"EV002","note":"","pages":[{"conditions":{"actorId":1,"actorValid":false,"itemId":1,"itemValid":false,"selfSwitchCh":"A","selfSwitchValid":false,"switch1Id":28,"switch1Valid":true,"switch2Id":1,"switch2Valid":false,"variableId":1,"variableValid":false,"variableValue":0},"directionFix":false,"image":{"characterIndex":0,"characterName":"","direction":2,"pattern":0,"tileId":0},"list":[{"code":101,"indent":0,"parameters":["SF_People1",2,0,2]},{"code":401,"indent":0,"parameters":["Soll ich wirklich in einem Müll wühlen, der "]},{"code":401,"indent":0,"parameters":["seit Jahren nicht geleert wurde?"]},{"code":101,"indent":0,"parameters":["SF_People1",2,0,2]},{"code":401,"indent":0,"parameters":["..."]},{"code":101,"indent":0,"parameters":["SF_People1",2,0,2]},{"code":401,"indent":0,"parameters":["Hier ist nichts nützliches drin."]},{"code":0,"indent":0,"parameters":[]}],"moveFrequency":3,"moveRoute":{"list":[{"code":0,"parameters":[]}],"repeat":true,"skippable":false,"wait":false},"moveSpeed":3,"moveType":0,"priorityType":1,"stepAnime":false,"through":false,"trigger":0,"walkAnime":true}],"x":15,"y":8},
{"id":3,"name":"EV003","note":"","pages":[{"conditions":{"actorId":1,"actorValid":false,"itemId":1,"itemValid":false,"selfSwitchCh":"A","selfSwitchValid":false,"switch1Id":28,"switch1Valid":true,"switch2Id":1,"switch2Valid":false,"variableId":1,"variableValid":false,"variableValue":0},"directionFix":false,"image":{"characterIndex":0,"characterName":"","direction":2,"pattern":0,"tileId":0},"list":[{"code":101,"indent":0,"parameters":["SF_People1",2,0,2]},{"code":401,"indent":0,"parameters":["Wie lange diese Reifen hier wohl schon rumliegen?"]},{"code":0,"indent":0,"parameters":[]}],"moveFrequency":3,"moveRoute":{"list":[{"code":0,"parameters":[]}],"repeat":true,"skippable":false,"wait":false},"moveSpeed":3,"moveType":0,"priorityType":1,"stepAnime":false,"through":false,"trigger":0,"walkAnime":true}],"x":22,"y":8},
{"id":4,"name":"EV004","note":"","pages":[{"conditions":{"actorId":1,"actorValid":false,"itemId":1,"itemValid":false,"selfSwitchCh":"A","selfSwitchValid":false,"switch1Id":28,"switch1Valid":true,"switch2Id":1,"switch2Valid":false,"variableId":1,"variableValid":false,"variableValue":0},"directionFix":false,"image":{"characterIndex":0,"characterName":"","direction":2,"pattern":0,"tileId":0},"list":[{"code":101,"indent":0,"parameters":["SF_People1",2,0,2]},{"code":401,"indent":0,"parameters":["In dieser Tonne ist eine schwarze "]},{"code":401,"indent":0,"parameters":["Flüssigkeit. Es stinkt bestialisch."]},{"code":0,"indent":0,"parameters":[]}],"moveFrequency":3,"moveRoute":{"list":[{"code":0,"parameters":[]}],"repeat":true,"skippable":false,"wait":false},"moveSpeed":3,"moveType":0,"priorityType":1,"stepAnime":false,"through":false,"trigger":0,"walkAnime":true}],"x":26,"y":6},
{"id":5,"name":"EV005","note":"","pages":[{"conditions":{"actorId":1,"actorValid":false,"itemId":1,"itemValid":false,"selfSwitchCh":"A","selfSwitchValid":false,"switch1Id":28,"switch1Valid":true,"switch2Id":1,"switch2Valid":false,"variableId":1,"variableValid":false,"variableValue":0},"directionFix":false,"image":{"characterIndex":0,"characterName":"","direction":2,"pattern":0,"tileId":0},"list":[{"code":101,"indent":0,"parameters":["SF_People1",2,0,2]},{"code":401,"indent":0,"parameters":["In dieser Tonne sammelt sich das Regenwasser."]},{"code":0,"indent":0,"parameters":[]}],"moveFrequency":3,"moveRoute":{"list":[{"code":0,"parameters":[]}],"repeat":true,"skippable":false,"wait":false},"moveSpeed":3,"moveType":0,"priorityType":1,"stepAnime":false,"through":false,"trigger":0,"walkAnime":true}],"x":26,"y":5},
{"id":6,"name":"EV006","note":"","pages":[{"conditions":{"actorId":1,"actorValid":false,"itemId":1,"itemValid":false,"selfSwitchCh":"A","selfSwitchValid":false,"switch1Id":1,"switch1Valid":false,"switch2Id":1,"switch2Valid":false,"variableId":1,"variableValid":false,"variableValue":0},"directionFix":false,"image":{"tileId":0,"characterName":"!Door1","direction":2,"pattern":1,"characterIndex":4},"list":[{"code":101,"indent":0,"parameters":["",0,0,2]},{"code":401,"indent":0,"parameters":["Die Tür ist verschlossen."]},{"code":0,"indent":0,"parameters":[]}],"moveFrequency":3,"moveRoute":{"list":[{"code":0,"parameters":[]}],"repeat":true,"skippable":false,"wait":false},"moveSpeed":3,"moveType":0,"priorityType":1,"stepAnime":false,"through":false,"trigger":1,"walkAnime":true}],"x":9,"y":40},
{"id":7,"name":"EV007","note":"","pages":[{"conditions":{"actorId":1,"actorValid":false,"itemId":1,"itemValid":false,"selfSwitchCh":"A","selfSwitchValid":false,"switch1Id":28,"switch1Valid":true,"switch2Id":1,"switch2Valid":false,"variableId":1,"variableValid":false,"variableValue":0},"directionFix":false,"image":{"characterIndex":0,"characterName":"","direction":2,"pattern":0,"tileId":0},"list":[{"code":101,"indent":0,"parameters":["SF_People1",2,0,2]},{"code":401,"indent":0,"parameters":["Wie diese Löcher wohl entstanden sind?"]},{"code":0,"indent":0,"parameters":[]}],"moveFrequency":3,"moveRoute":{"list":[{"code":0,"parameters":[]}],"repeat":true,"skippable":false,"wait":false},"moveSpeed":3,"moveType":0,"priorityType":1,"stepAnime":false,"through":false,"trigger":0,"walkAnime":true}],"x":25,"y":1},
{"id":8,"name":"EV008","note":"","pages":[{"conditions":{"actorId":1,"actorValid":false,"itemId":1,"itemValid":false,"selfSwitchCh":"A","selfSwitchValid":false,"switch1Id":28,"switch1Valid":true,"switch2Id":1,"switch2Valid":false,"variableId":1,"variableValid":false,"variableValue":0},"directionFix":false,"image":{"characterIndex":0,"characterName":"","direction":2,"pattern":0,"tileId":0},"list":[{"code":101,"indent":0,"parameters":["SF_People1",2,0,2]},{"code":401,"indent":0,"parameters":["Ein paar Schrottteile. Nichts erwähnenswertes."]},{"code":0,"indent":0,"parameters":[]}],"moveFrequency":3,"moveRoute":{"list":[{"code":0,"parameters":[]}],"repeat":true,"skippable":false,"wait":false},"moveSpeed":3,"moveType":0,"priorityType":0,"stepAnime":false,"through":false,"trigger":0,"walkAnime":true}],"x":11,"y":1},
{"id":9,"name":"EV009","note":"","pages":[{"conditions":{"actorId":1,"actorValid":false,"itemId":1,"itemValid":false,"selfSwitchCh":"A","selfSwitchValid":false,"switch1Id":28,"switch1Valid":false,"switch2Id":1,"switch2Valid":false,"variableId":1,"variableValid":false,"variableValue":0},"directionFix":false,"image":{"characterIndex":0,"characterName":"","direction":2,"pattern":0,"tileId":0},"list":[{"code":101,"indent":0,"parameters":["",2,0,2]},{"code":401,"indent":0,"parameters":["Ein tiefer dunkler Brunnen. Er scheint kein Wasser mehr"]},{"code":401,"indent":0,"parameters":["zu führen."]},{"code":0,"indent":0,"parameters":[]}],"moveFrequency":3,"moveRoute":{"list":[{"code":0,"parameters":[]}],"repeat":true,"skippable":false,"wait":false},"moveSpeed":3,"moveType":0,"priorityType":1,"stepAnime":false,"through":false,"trigger":0,"walkAnime":true},{"conditions":{"actorId":1,"actorValid":false,"itemId":1,"itemValid":false,"selfSwitchCh":"A","selfSwitchValid":false,"switch1Id":28,"switch1Valid":true,"switch2Id":1,"switch2Valid":false,"variableId":1,"variableValid":false,"variableValue":0},"directionFix":false,"image":{"characterIndex":0,"characterName":"","direction":2,"pattern":0,"tileId":0},"list":[{"code":101,"indent":0,"parameters":["",2,0,2]},{"code":401,"indent":0,"parameters":["Am Grund des Brunnens scheint etwas im Sonnenlicht zu"]},{"code":401,"indent":0,"parameters":["glitzern."]},{"code":101,"indent":0,"parameters":["SF_People1",2,0,2]},{"code":401,"indent":0,"parameters":["Mit einer Art Angel würde ich bestimmt"]},{"code":401,"indent":0,"parameters":["drankommen. Aber woher bekomme ich hier"]},{"code":401,"indent":0,"parameters":["eine Angel her? Gibt es hier Angler?"]},{"code":111,"indent":0,"parameters":[8,11]},{"code":101,"indent":1,"parameters":["SF_People1",2,0,2]},{"code":401,"indent":1,"parameters":["Mit der Angel sollte ich an den Schlüssel"]},{"code":401,"indent":1,"parameters":["herankommen."]},{"code":213,"indent":1,"parameters":[-1,8,true]},{"code":213,"indent":1,"parameters":[-1,1,false]},{"code":212,"indent":1,"parameters":[-1,1,false]},{"code":126,"indent":1,"parameters":[10,0,0,1]},{"code":101,"indent":1,"parameters":["",0,0,2]},{"code":401,"indent":1,"parameters":["Du hast einen Schlüssel erhalten."]},{"code":101,"indent":1,"parameters":["SF_People1",2,0,2]},{"code":401,"indent":1,"parameters":["Super! Ich hoffe, dass ich damit ins Haus"]},{"code":401,"indent":1,"parameters":["des Bürgermeisters komme."]},{"code":121,"indent":1,"parameters":[28,28,1]},{"code":0,"indent":1,"parameters":[]},{"code":411,"indent":0,"parameters":[]},{"code":121,"indent":1,"parameters":[28,28,1]},{"code":121,"indent":1,"parameters":[29,29,0]},{"code":0,"indent":1,"parameters":[]},{"code":412,"indent":0,"parameters":[]},{"code":0,"indent":0,"parameters":[]}],"moveFrequency":3,"moveRoute":{"list":[{"code":0,"parameters":[]}],"repeat":true,"skippable":false,"wait":false},"moveSpeed":3,"moveType":0,"priorityType":1,"stepAnime":false,"through":false,"trigger":0,"walkAnime":true},{"conditions":{"actorId":1,"actorValid":false,"itemId":11,"itemValid":true,"selfSwitchCh":"A","selfSwitchValid":false,"switch1Id":29,"switch1Valid":true,"switch2Id":1,"switch2Valid":false,"variableId":1,"variableValid":false,"variableValue":0},"directionFix":false,"image":{"characterIndex":0,"characterName":"","direction":2,"pattern":0,"tileId":0},"list":[{"code":101,"indent":0,"parameters":["SF_People1",2,0,2]},{"code":401,"indent":0,"parameters":["Mit der Angel sollte ich an den Schlüssel"]},{"code":401,"indent":0,"parameters":["herankommen."]},{"code":213,"indent":0,"parameters":[-1,8,true]},{"code":213,"indent":0,"parameters":[-1,1,false]},{"code":212,"indent":0,"parameters":[-1,1,false]},{"code":126,"indent":0,"parameters":[10,0,0,1]},{"code":101,"indent":0,"parameters":["",0,0,2]},{"code":401,"indent":0,"parameters":["Du hast einen Schlüssel erhalten."]},{"code":101,"indent":0,"parameters":["SF_People1",2,0,2]},{"code":401,"indent":0,"parameters":["Super! Ich hoffe, dass ich damit ins Haus"]},{"code":401,"indent":0,"parameters":["des Bürgermeisters komme."]},{"code":121,"indent":0,"parameters":[29,29,1]},{"code":0,"indent":0,"parameters":[]}],"moveFrequency":3,"moveRoute":{"list":[{"code":0,"parameters":[]}],"repeat":true,"skippable":false,"wait":false},"moveSpeed":3,"moveType":0,"priorityType":1,"stepAnime":false,"through":false,"trigger":0,"walkAnime":true}],"x":25,"y":11},
{"id":10,"name":"EV010","note":"","pages":[{"conditions":{"actorId":1,"actorValid":false,"itemId":1,"itemValid":false,"selfSwitchCh":"A","selfSwitchValid":false,"switch1Id":1,"switch1Valid":false,"switch2Id":1,"switch2Valid":false,"variableId":1,"variableValid":false,"variableValue":0},"directionFix":false,"image":{"characterIndex":0,"characterName":"","direction":2,"pattern":0,"tileId":0},"list":[{"code":101,"indent":0,"parameters":["",2,0,2]},{"code":401,"indent":0,"parameters":["Haus von Bernd Richter"]},{"code":0,"indent":0,"parameters":[]}],"moveFrequency":3,"moveRoute":{"list":[{"code":0,"parameters":[]}],"repeat":true,"skippable":false,"wait":false},"moveSpeed":3,"moveType":0,"priorityType":1,"stepAnime":false,"through":false,"trigger":0,"walkAnime":true}],"x":23,"y":15},
{"id":11,"name":"EV011","note":"","pages":[{"conditions":{"actorId":1,"actorValid":false,"itemId":1,"itemValid":false,"selfSwitchCh":"A","selfSwitchValid":false,"switch1Id":1,"switch1Valid":false,"switch2Id":1,"switch2Valid":false,"variableId":1,"variableValid":false,"variableValue":0},"directionFix":false,"image":{"characterIndex":0,"characterName":"","direction":2,"pattern":0,"tileId":0},"list":[{"code":250,"indent":0,"parameters":[{"name":"Move1","pan":0,"pitch":100,"volume":90}]},{"code":201,"indent":0,"parameters":[0,7,27,0,2,0]},{"code":0,"indent":0,"parameters":[]}],"moveFrequency":3,"moveRoute":{"list":[{"code":0,"parameters":[]}],"repeat":true,"skippable":false,"wait":false},"moveSpeed":3,"moveType":0,"priorityType":0,"stepAnime":false,"through":false,"trigger":1,"walkAnime":true}],"x":20,"y":49},
{"id":12,"name":"EV012","note":"","pages":[{"conditions":{"actorId":1,"actorValid":false,"itemId":1,"itemValid":false,"selfSwitchCh":"A","selfSwitchValid":false,"switch1Id":1,"switch1Valid":false,"switch2Id":1,"switch2Valid":false,"variableId":1,"variableValid":false,"variableValue":0},"directionFix":false,"image":{"characterIndex":0,"characterName":"","direction":2,"pattern":0,"tileId":0},"list":[{"code":250,"indent":0,"parameters":[{"name":"Move1","pan":0,"pitch":100,"volume":90}]},{"code":201,"indent":0,"parameters":[0,7,28,0,2,0]},{"code":0,"indent":0,"parameters":[]}],"moveFrequency":3,"moveRoute":{"list":[{"code":0,"parameters":[]}],"repeat":true,"skippable":false,"wait":false},"moveSpeed":3,"moveType":0,"priorityType":0,"stepAnime":false,"through":false,"trigger":1,"walkAnime":true}],"x":21,"y":49},
{"id":13,"name":"EV013","note":"","pages":[{"conditions":{"actorId":1,"actorValid":false,"itemId":1,"itemValid":false,"selfSwitchCh":"A","selfSwitchValid":false,"switch1Id":1,"switch1Valid":false,"switch2Id":1,"switch2Valid":false,"variableId":1,"variableValid":false,"variableValue":0},"directionFix":false,"image":{"characterIndex":0,"characterName":"","direction":2,"pattern":0,"tileId":0},"list":[{"code":250,"indent":0,"parameters":[{"name":"Move1","pan":0,"pitch":100,"volume":90}]},{"code":201,"indent":0,"parameters":[0,7,29,0,2,0]},{"code":0,"indent":0,"parameters":[]}],"moveFrequency":3,"moveRoute":{"list":[{"code":0,"parameters":[]}],"repeat":true,"skippable":false,"wait":false},"moveSpeed":3,"moveType":0,"priorityType":0,"stepAnime":false,"through":false,"trigger":1,"walkAnime":true}],"x":22,"y":49},
{"id":14,"name":"EV014","note":"","pages":[{"conditions":{"actorId":1,"actorValid":false,"itemId":1,"itemValid":false,"selfSwitchCh":"A","selfSwitchValid":false,"switch1Id":1,"switch1Valid":false,"switch2Id":1,"switch2Valid":false,"variableId":1,"variableValid":false,"variableValue":0},"directionFix":false,"image":{"characterIndex":0,"characterName":"","direction":2,"pattern":0,"tileId":0},"list":[{"code":250,"indent":0,"parameters":[{"name":"Move1","pan":0,"pitch":100,"volume":90}]},{"code":201,"indent":0,"parameters":[0,1,0,23,6,0]},{"code":0,"indent":0,"parameters":[]}],"moveFrequency":3,"moveRoute":{"list":[{"code":0,"parameters":[]}],"repeat":true,"skippable":false,"wait":false},"moveSpeed":3,"moveType":0,"priorityType":0,"stepAnime":false,"through":false,"trigger":1,"walkAnime":true}],"x":29,"y":23},
{"id":15,"name":"EV015","note":"","pages":[{"conditions":{"actorId":1,"actorValid":false,"itemId":1,"itemValid":false,"selfSwitchCh":"A","selfSwitchValid":false,"switch1Id":1,"switch1Valid":false,"switch2Id":1,"switch2Valid":false,"variableId":1,"variableValid":false,"variableValue":0},"directionFix":false,"image":{"characterIndex":0,"characterName":"","direction":2,"pattern":0,"tileId":0},"list":[{"code":250,"indent":0,"parameters":[{"name":"Move1","pan":0,"pitch":100,"volume":90}]},{"code":201,"indent":0,"parameters":[0,1,0,24,6,0]},{"code":0,"indent":0,"parameters":[]}],"moveFrequency":3,"moveRoute":{"list":[{"code":0,"parameters":[]}],"repeat":true,"skippable":false,"wait":false},"moveSpeed":3,"moveType":0,"priorityType":0,"stepAnime":false,"through":false,"trigger":1,"walkAnime":true}],"x":29,"y":24},
{"id":16,"name":"EV016","note":"","pages":[{"conditions":{"actorId":1,"actorValid":false,"itemId":1,"itemValid":false,"selfSwitchCh":"A","selfSwitchValid":false,"switch1Id":1,"switch1Valid":false,"switch2Id":1,"switch2Valid":false,"variableId":1,"variableValid":false,"variableValue":0},"directionFix":false,"image":{"characterIndex":0,"characterName":"","direction":2,"pattern":0,"tileId":0},"list":[{"code":250,"indent":0,"parameters":[{"name":"Move1","pan":0,"pitch":100,"volume":90}]},{"code":201,"indent":0,"parameters":[0,1,0,25,6,0]},{"code":0,"indent":0,"parameters":[]}],"moveFrequency":3,"moveRoute":{"list":[{"code":0,"parameters":[]}],"repeat":true,"skippable":false,"wait":false},"moveSpeed":3,"moveType":0,"priorityType":0,"stepAnime":false,"through":false,"trigger":1,"walkAnime":true}],"x":29,"y":25},
{"id":17,"name":"EV017","note":"","pages":[{"conditions":{"actorId":1,"actorValid":false,"itemId":1,"itemValid":false,"selfSwitchCh":"A","selfSwitchValid":false,"switch1Id":1,"switch1Valid":false,"switch2Id":1,"switch2Valid":false,"variableId":1,"variableValid":false,"variableValue":0},"directionFix":false,"image":{"characterIndex":0,"characterName":"","direction":2,"pattern":0,"tileId":0},"list":[{"code":250,"indent":0,"parameters":[{"name":"Move1","pan":0,"pitch":100,"volume":90}]},{"code":201,"indent":0,"parameters":[0,1,0,26,6,0]},{"code":0,"indent":0,"parameters":[]}],"moveFrequency":3,"moveRoute":{"list":[{"code":0,"parameters":[]}],"repeat":true,"skippable":false,"wait":false},"moveSpeed":3,"moveType":0,"priorityType":0,"stepAnime":false,"through":false,"trigger":1,"walkAnime":true}],"x":29,"y":26},
{"id":18,"name":"EV018","note":"","pages":[{"conditions":{"actorId":1,"actorValid":false,"itemId":1,"itemValid":false,"selfSwitchCh":"A","selfSwitchValid":false,"switch1Id":1,"switch1Valid":false,"switch2Id":1,"switch2Valid":false,"variableId":1,"variableValid":false,"variableValue":0},"directionFix":false,"image":{"tileId":0,"characterName":"!Door1","direction":2,"pattern":2,"characterIndex":0},"list":[{"code":101,"indent":0,"parameters":["",0,0,2]},{"code":401,"indent":0,"parameters":["Die Tür ist verschlossen."]},{"code":0,"indent":0,"parameters":[]}],"moveFrequency":3,"moveRoute":{"list":[{"code":0,"parameters":[]}],"repeat":true,"skippable":false,"wait":false},"moveSpeed":3,"moveType":0,"priorityType":1,"stepAnime":false,"through":false,"trigger":1,"walkAnime":false},{"conditions":{"actorId":1,"actorValid":false,"itemId":1,"itemValid":false,"selfSwitchCh":"A","selfSwitchValid":false,"switch1Id":27,"switch1Valid":true,"switch2Id":1,"switch2Valid":false,"variableId":1,"variableValid":false,"variableValue":0},"directionFix":false,"image":{"tileId":0,"characterName":"!Door1","direction":2,"pattern":2,"characterIndex":0},"list":[{"code":111,"indent":0,"parameters":[8,10]},{"code":250,"indent":1,"parameters":[{"name":"Open1","pan":0,"pitch":100,"volume":90}]},{"code":205,"indent":1,"parameters":[0,{"list":[{"code":17},{"code":15,"parameters":[3]},{"code":18},{"code":15,"parameters":[3]},{"code":19},{"code":37},{"code":0}],"repeat":false,"skippable":false,"wait":true}]},{"code":505,"indent":1,"parameters":[{"code":17}]},{"code":505,"indent":1,"parameters":[{"code":15,"parameters":[3]}]},{"code":505,"indent":1,"parameters":[{"code":18}]},{"code":505,"indent":1,"parameters":[{"code":15,"parameters":[3]}]},{"code":505,"indent":1,"parameters":[{"code":19}]},{"code":505,"indent":1,"parameters":[{"code":37}]},{"code":250,"indent":1,"parameters":[{"name":"Move1","pan":0,"pitch":100,"volume":90}]},{"code":201,"indent":1,"parameters":[0,9,11,11,0,0]},{"code":0,"indent":1,"parameters":[]},{"code":411,"indent":0,"parameters":[]},{"code":101,"indent":1,"parameters":["",0,0,2]},{"code":401,"indent":1,"parameters":["Die Tür ist verschlossen."]},{"code":101,"indent":1,"parameters":["",0,0,2]},{"code":401,"indent":1,"parameters":["Möchtest du klingeln?"]},{"code":102,"indent":1,"parameters":[["Ja","Nein"],1,0,2,0]},{"code":402,"indent":1,"parameters":[0,"Ja"]},{"code":101,"indent":2,"parameters":["",0,0,2]},{"code":401,"indent":2,"parameters":["Nichts passiert."]},{"code":0,"indent":2,"parameters":[]},{"code":402,"indent":1,"parameters":[1,"Nein"]},{"code":0,"indent":2,"parameters":[]},{"code":404,"indent":1,"parameters":[]},{"code":101,"indent":1,"parameters":["SF_People1",2,0,2]},{"code":401,"indent":1,"parameters":["Das Haus sieht ziemlich verwahrlost aus."]},{"code":401,"indent":1,"parameters":["Es sieht nicht aus, als würde hier noch"]},{"code":401,"indent":1,"parameters":["jemand leben. Ich weiß, es ist eigentlich"]},{"code":401,"indent":1,"parameters":["nicht erlaubt, aber ich muss wissen, ob es"]},{"code":101,"indent":1,"parameters":["SF_People1",2,0,2]},{"code":401,"indent":1,"parameters":["dem Bürgermeister gut geht. Vielleicht"]},{"code":401,"indent":1,"parameters":["ist hier irgendwo ein Ersatzschlüssel"]},{"code":401,"indent":1,"parameters":["versteckt? Ich sollte mich ein bisschen "]},{"code":401,"indent":1,"parameters":["umsehen."]},{"code":121,"indent":1,"parameters":[27,27,1]},{"code":121,"indent":1,"parameters":[28,28,0]},{"code":0,"indent":1,"parameters":[]},{"code":412,"indent":0,"parameters":[]},{"code":0,"indent":0,"parameters":[]}],"moveFrequency":3,"moveRoute":{"list":[{"code":0,"parameters":[]}],"repeat":true,"skippable":false,"wait":false},"moveSpeed":3,"moveType":0,"priorityType":1,"stepAnime":false,"through":false,"trigger":1,"walkAnime":false},{"conditions":{"actorId":1,"actorValid":false,"itemId":10,"itemValid":true,"selfSwitchCh":"A","selfSwitchValid":false,"switch1Id":1,"switch1Valid":false,"switch2Id":1,"switch2Valid":false,"variableId":1,"variableValid":false,"variableValue":0},"directionFix":false,"image":{"tileId":0,"characterName":"!Door1","direction":2,"pattern":0,"characterIndex":0},"list":[{"code":250,"indent":0,"parameters":[{"name":"Open1","pan":0,"pitch":100,"volume":90}]},{"code":205,"indent":0,"parameters":[0,{"list":[{"code":17},{"code":15,"parameters":[3]},{"code":18},{"code":15,"parameters":[3]},{"code":19},{"code":37},{"code":0}],"repeat":false,"skippable":false,"wait":true}]},{"code":505,"indent":0,"parameters":[{"code":17}]},{"code":505,"indent":0,"parameters":[{"code":15,"parameters":[3]}]},{"code":505,"indent":0,"parameters":[{"code":18}]},{"code":505,"indent":0,"parameters":[{"code":15,"parameters":[3]}]},{"code":505,"indent":0,"parameters":[{"code":19}]},{"code":505,"indent":0,"parameters":[{"code":37}]},{"code":250,"indent":0,"parameters":[{"name":"Move1","pan":0,"pitch":100,"volume":90}]},{"code":201,"indent":0,"parameters":[0,9,11,11,0,0]},{"code":0,"indent":0,"parameters":[]}],"moveFrequency":3,"moveRoute":{"list":[{"code":0,"parameters":[]}],"repeat":true,"skippable":false,"wait":false},"moveSpeed":3,"moveType":0,"priorityType":1,"stepAnime":false,"through":false,"trigger":0,"walkAnime":true}],"x":20,"y":7},
{"id":19,"name":"EV019","note":"","pages":[{"conditions":{"actorId":1,"actorValid":false,"itemId":1,"itemValid":false,"selfSwitchCh":"A","selfSwitchValid":false,"switch1Id":24,"switch1Valid":false,"switch2Id":1,"switch2Valid":false,"variableId":1,"variableValid":false,"variableValue":0},"directionFix":false,"image":{"tileId":0,"characterName":"","direction":2,"pattern":1,"characterIndex":4},"list":[{"code":101,"indent":0,"parameters":["SF_People1",2,0,2]},{"code":401,"indent":0,"parameters":["Wow diese Statue sieht beeindruckend aus. "]},{"code":401,"indent":0,"parameters":["Sie ist einem Bernd Richter gewidment. "]},{"code":401,"indent":0,"parameters":["Schade das sich scheinbar niemand um sie "]},{"code":401,"indent":0,"parameters":["kümmert. "]},{"code":0,"indent":0,"parameters":[]}],"moveFrequency":3,"moveRoute":{"list":[{"code":0,"parameters":[]}],"repeat":true,"skippable":false,"wait":false},"moveSpeed":3,"moveType":0,"priorityType":1,"stepAnime":false,"through":false,"trigger":0,"walkAnime":true},{"conditions":{"actorId":1,"actorValid":false,"itemId":1,"itemValid":false,"selfSwitchCh":"A","selfSwitchValid":false,"switch1Id":24,"switch1Valid":true,"switch2Id":1,"switch2Valid":false,"variableId":1,"variableValid":false,"variableValue":0},"directionFix":false,"image":{"characterIndex":0,"characterName":"","direction":2,"pattern":0,"tileId":0},"list":[{"code":101,"indent":0,"parameters":["SF_People1",2,0,2]},{"code":401,"indent":0,"parameters":["Wow diese Statue sieht beeindruckend aus. "]},{"code":401,"indent":0,"parameters":["Sie ist einem Bernd Richter gewidment. "]},{"code":401,"indent":0,"parameters":["Schade das sich scheinbar niemand um sie "]},{"code":401,"indent":0,"parameters":["kümmert. "]},{"code":101,"indent":0,"parameters":["SF_People1",2,0,2]},{"code":401,"indent":0,"parameters":["Diese Statue soll den Bürgermeister Richter"]},{"code":401,"indent":0,"parameters":["darstellen?"]},{"code":101,"indent":0,"parameters":["SF_People1",2,0,2]},{"code":401,"indent":0,"parameters":["Wenn ich ehrlich bin, hab ich ihn noch nie"]},{"code":401,"indent":0,"parameters":["gesehen. Als Bürgermeister hätte er sich "]},{"code":401,"indent":0,"parameters":["wenigstens mal vorstellen können."]},{"code":101,"indent":0,"parameters":["SF_People1",2,0,2]},{"code":401,"indent":0,"parameters":["Das ist schon komisch. Im Rathaus war ja "]},{"code":401,"indent":0,"parameters":["auch niemand."]},{"code":401,"indent":0,"parameters":["Ich sollte die Bewohner mal nach ihm "]},{"code":401,"indent":0,"parameters":["befragen."]},{"code":121,"indent":0,"parameters":[24,24,1]},{"code":121,"indent":0,"parameters":[25,25,0]},{"code":122,"indent":0,"parameters":[10,10,0,0,0]},{"code":0,"indent":0,"parameters":[]}],"moveFrequency":3,"moveRoute":{"list":[{"code":0,"parameters":[]}],"repeat":true,"skippable":false,"wait":false},"moveSpeed":3,"moveType":0,"priorityType":1,"stepAnime":false,"through":false,"trigger":0,"walkAnime":true}],"x":26,"y":17},
{"id":20,"name":"EV020","note":"","pages":[{"conditions":{"actorId":1,"actorValid":false,"itemId":1,"itemValid":false,"selfSwitchCh":"A","selfSwitchValid":false,"switch1Id":28,"switch1Valid":true,"switch2Id":1,"switch2Valid":false,"variableId":1,"variableValid":false,"variableValue":0},"directionFix":false,"image":{"characterIndex":0,"characterName":"","direction":2,"pattern":0,"tileId":0},"list":[{"code":101,"indent":0,"parameters":["SF_People1",2,0,2]},{"code":401,"indent":0,"parameters":["Ob der Schlüssel wohl im Briefkasten ist?"]},{"code":101,"indent":0,"parameters":["SF_People1",2,0,2]},{"code":401,"indent":0,"parameters":["Hier ist nichts. Das wäre wohl zu "]},{"code":401,"indent":0,"parameters":["auffällig."]},{"code":0,"indent":0,"parameters":[]}],"moveFrequency":3,"moveRoute":{"list":[{"code":0,"parameters":[]}],"repeat":true,"skippable":false,"wait":false},"moveSpeed":3,"moveType":0,"priorityType":1,"stepAnime":false,"through":false,"trigger":0,"walkAnime":true}],"x":21,"y":8},
{"id":21,"name":"EV021","note":"","pages":[{"conditions":{"actorId":1,"actorValid":false,"itemId":1,"itemValid":false,"selfSwitchCh":"A","selfSwitchValid":false,"switch1Id":1,"switch1Valid":false,"switch2Id":1,"switch2Valid":false,"variableId":20,"variableValid":false,"variableValue":0},"directionFix":false,"image":{"characterIndex":0,"characterName":"","direction":2,"pattern":0,"tileId":0},"list":[{"code":101,"indent":0,"parameters":["SF_People1",2,0,2]},{"code":401,"indent":0,"parameters":["Ich kann doch keine fremde Post lesen!"]},{"code":0,"indent":0,"parameters":[]}],"moveFrequency":3,"moveRoute":{"list":[{"code":0,"parameters":[]}],"repeat":true,"skippable":false,"wait":false},"moveSpeed":3,"moveType":0,"priorityType":1,"stepAnime":false,"through":false,"trigger":0,"walkAnime":true}],"x":18,"y":44},
{"id":22,"name":"EV022","note":"","pages":[{"conditions":{"actorId":1,"actorValid":false,"itemId":1,"itemValid":false,"selfSwitchCh":"A","selfSwitchValid":false,"switch1Id":1,"switch1Valid":false,"switch2Id":1,"switch2Valid":false,"variableId":20,"variableValid":false,"variableValue":0},"directionFix":false,"image":{"characterIndex":0,"characterName":"","direction":2,"pattern":0,"tileId":0},"list":[{"code":122,"indent":0,"parameters":[20,20,0,2,10,120]},{"code":101,"indent":0,"parameters":["SF_People1",2,0,2]},{"code":401,"indent":0,"parameters":["Der nächste Bus fährt in \\V[20] Minuten."]},{"code":0,"indent":0,"parameters":[]}],"moveFrequency":3,"moveRoute":{"list":[{"code":0,"parameters":[]}],"repeat":true,"skippable":false,"wait":false},"moveSpeed":3,"moveType":0,"priorityType":0,"stepAnime":false,"through":false,"trigger":0,"walkAnime":true}],"x":18,"y":40},
{"id":23,"name":"EV023","note":"","pages":[{"conditions":{"actorId":1,"actorValid":false,"itemId":1,"itemValid":false,"selfSwitchCh":"A","selfSwitchValid":false,"switch1Id":1,"switch1Valid":false,"switch2Id":1,"switch2Valid":false,"variableId":20,"variableValid":false,"variableValue":0},"directionFix":false,"image":{"characterIndex":0,"characterName":"","direction":2,"pattern":0,"tileId":0},"list":[{"code":122,"indent":0,"parameters":[20,20,0,2,10,120]},{"code":101,"indent":0,"parameters":["SF_People1",2,0,2]},{"code":401,"indent":0,"parameters":["Der nächste Bus fährt in \\V[20] Minuten."]},{"code":0,"indent":0,"parameters":[]}],"moveFrequency":3,"moveRoute":{"list":[{"code":0,"parameters":[]}],"repeat":true,"skippable":false,"wait":false},"moveSpeed":3,"moveType":0,"priorityType":0,"stepAnime":false,"through":false,"trigger":0,"walkAnime":true}],"x":19,"y":40},
{"id":24,"name":"EV024","note":"","pages":[{"conditions":{"actorId":1,"actorValid":false,"itemId":1,"itemValid":false,"selfSwitchCh":"A","selfSwitchValid":false,"switch1Id":1,"switch1Valid":false,"switch2Id":1,"switch2Valid":false,"variableId":20,"variableValid":false,"variableValue":0},"directionFix":false,"image":{"characterIndex":0,"characterName":"","direction":2,"pattern":0,"tileId":0},"list":[{"code":101,"indent":0,"parameters":["SF_People1",2,0,2]},{"code":401,"indent":0,"parameters":["Das nenne ich ein gut gepflegtes Beet."]},{"code":0,"indent":0,"parameters":[]}],"moveFrequency":3,"moveRoute":{"list":[{"code":0,"parameters":[]}],"repeat":true,"skippable":false,"wait":false},"moveSpeed":3,"moveType":0,"priorityType":1,"stepAnime":false,"through":false,"trigger":0,"walkAnime":true}],"x":6,"y":45},
{"id":25,"name":"EV025","note":"","pages":[{"conditions":{"actorId":1,"actorValid":false,"itemId":1,"itemValid":false,"selfSwitchCh":"A","selfSwitchValid":false,"switch1Id":1,"switch1Valid":false,"switch2Id":1,"switch2Valid":false,"variableId":20,"variableValid":false,"variableValue":0},"directionFix":false,"image":{"characterIndex":0,"characterName":"","direction":2,"pattern":0,"tileId":0},"list":[{"code":101,"indent":0,"parameters":["SF_People1",2,0,2]},{"code":401,"indent":0,"parameters":["Das nenne ich ein gut gepflegtes Beet."]},{"code":0,"indent":0,"parameters":[]}],"moveFrequency":3,"moveRoute":{"list":[{"code":0,"parameters":[]}],"repeat":true,"skippable":false,"wait":false},"moveSpeed":3,"moveType":0,"priorityType":1,"stepAnime":false,"through":false,"trigger":0,"walkAnime":true}],"x":6,"y":46},
{"id":26,"name":"EV026","note":"","pages":[{"conditions":{"actorId":1,"actorValid":false,"itemId":1,"itemValid":false,"selfSwitchCh":"A","selfSwitchValid":false,"switch1Id":1,"switch1Valid":false,"switch2Id":1,"switch2Valid":false,"variableId":20,"variableValid":false,"variableValue":0},"directionFix":false,"image":{"characterIndex":0,"characterName":"","direction":2,"pattern":0,"tileId":0},"list":[{"code":101,"indent":0,"parameters":["SF_People1",2,0,2]},{"code":401,"indent":0,"parameters":["Das nenne ich ein gut gepflegtes Beet."]},{"code":0,"indent":0,"parameters":[]}],"moveFrequency":3,"moveRoute":{"list":[{"code":0,"parameters":[]}],"repeat":true,"skippable":false,"wait":false},"moveSpeed":3,"moveType":0,"priorityType":1,"stepAnime":false,"through":false,"trigger":0,"walkAnime":true}],"x":5,"y":46},
{"id":27,"name":"EV027","note":"","pages":[{"conditions":{"actorId":1,"actorValid":false,"itemId":1,"itemValid":false,"selfSwitchCh":"A","selfSwitchValid":false,"switch1Id":1,"switch1Valid":false,"switch2Id":1,"switch2Valid":false,"variableId":20,"variableValid":false,"variableValue":0},"directionFix":false,"image":{"characterIndex":0,"characterName":"","direction":2,"pattern":0,"tileId":0},"list":[{"code":101,"indent":0,"parameters":["SF_People1",2,0,2]},{"code":401,"indent":0,"parameters":["Das nenne ich ein gut gepflegtes Beet."]},{"code":0,"indent":0,"parameters":[]}],"moveFrequency":3,"moveRoute":{"list":[{"code":0,"parameters":[]}],"repeat":true,"skippable":false,"wait":false},"moveSpeed":3,"moveType":0,"priorityType":1,"stepAnime":false,"through":false,"trigger":0,"walkAnime":true}],"x":5,"y":45},
{"id":28,"name":"EV028","note":"","pages":[{"conditions":{"actorId":1,"actorValid":false,"itemId":1,"itemValid":false,"selfSwitchCh":"A","selfSwitchValid":false,"switch1Id":1,"switch1Valid":false,"switch2Id":1,"switch2Valid":false,"variableId":20,"variableValid":false,"variableValue":0},"directionFix":false,"image":{"characterIndex":0,"characterName":"","direction":2,"pattern":0,"tileId":0},"list":[{"code":101,"indent":0,"parameters":["SF_People1",2,0,2]},{"code":401,"indent":0,"parameters":["Wir sollten uns auch etwas Feuerholz für"]},{"code":401,"indent":0,"parameters":["den Winter besorgen."]},{"code":0,"indent":0,"parameters":[]}],"moveFrequency":3,"moveRoute":{"list":[{"code":0,"parameters":[]}],"repeat":true,"skippable":false,"wait":false},"moveSpeed":3,"moveType":0,"priorityType":1,"stepAnime":false,"through":false,"trigger":0,"walkAnime":true}],"x":12,"y":40},
{"id":29,"name":"EV029","note":"","pages":[{"conditions":{"actorId":1,"actorValid":false,"itemId":1,"itemValid":false,"selfSwitchCh":"A","selfSwitchValid":false,"switch1Id":1,"switch1Valid":false,"switch2Id":1,"switch2Valid":false,"variableId":20,"variableValid":false,"variableValue":0},"directionFix":false,"image":{"characterIndex":0,"characterName":"","direction":2,"pattern":0,"tileId":0},"list":[{"code":101,"indent":0,"parameters":["SF_People1",2,0,2]},{"code":401,"indent":0,"parameters":["Ist das ein Elektoauto?"]},{"code":401,"indent":0,"parameters":["\\. Nein hab mich wohl geirrt."]},{"code":0,"indent":0,"parameters":[]}],"moveFrequency":3,"moveRoute":{"list":[{"code":0,"parameters":[]}],"repeat":true,"skippable":false,"wait":false},"moveSpeed":3,"moveType":0,"priorityType":1,"stepAnime":false,"through":false,"trigger":0,"walkAnime":true}],"x":14,"y":42},
{"id":30,"name":"EV030","note":"","pages":[{"conditions":{"actorId":1,"actorValid":false,"itemId":1,"itemValid":false,"selfSwitchCh":"A","selfSwitchValid":false,"switch1Id":1,"switch1Valid":false,"switch2Id":1,"switch2Valid":false,"variableId":20,"variableValid":false,"variableValue":0},"directionFix":false,"image":{"characterIndex":0,"characterName":"","direction":2,"pattern":0,"tileId":0},"list":[{"code":101,"indent":0,"parameters":["SF_People1",2,0,2]},{"code":401,"indent":0,"parameters":["Komisch. Warum ist hier gesperrt?"]},{"code":0,"indent":0,"parameters":[]}],"moveFrequency":3,"moveRoute":{"list":[{"code":0,"parameters":[]}],"repeat":true,"skippable":false,"wait":false},"moveSpeed":3,"moveType":0,"priorityType":1,"stepAnime":false,"through":false,"trigger":0,"walkAnime":true}],"x":21,"y":20},
{"id":31,"name":"EV031","note":"","pages":[{"conditions":{"actorId":1,"actorValid":false,"itemId":1,"itemValid":false,"selfSwitchCh":"A","selfSwitchValid":false,"switch1Id":1,"switch1Valid":false,"switch2Id":1,"switch2Valid":false,"variableId":20,"variableValid":false,"variableValue":0},"directionFix":false,"image":{"characterIndex":0,"characterName":"","direction":2,"pattern":0,"tileId":0},"list":[{"code":101,"indent":0,"parameters":["SF_People1",2,0,2]},{"code":401,"indent":0,"parameters":["Komisch. Warum ist hier gesperrt?"]},{"code":0,"indent":0,"parameters":[]}],"moveFrequency":3,"moveRoute":{"list":[{"code":0,"parameters":[]}],"repeat":true,"skippable":false,"wait":false},"moveSpeed":3,"moveType":0,"priorityType":1,"stepAnime":false,"through":false,"trigger":0,"walkAnime":true}],"x":22,"y":19},
{"id":32,"name":"EV032","note":"","pages":[{"conditions":{"actorId":1,"actorValid":false,"itemId":1,"itemValid":false,"selfSwitchCh":"A","selfSwitchValid":false,"switch1Id":1,"switch1Valid":false,"switch2Id":1,"switch2Valid":false,"variableId":20,"variableValid":false,"variableValue":0},"directionFix":false,"image":{"characterIndex":0,"characterName":"","direction":2,"pattern":0,"tileId":0},"list":[{"code":101,"indent":0,"parameters":["SF_People1",2,0,2]},{"code":401,"indent":0,"parameters":["Es sieht so aus, als wurde der Kofferaum"]},{"code":401,"indent":0,"parameters":["von diesem Auto schon mal aufgebrochen."]},{"code":0,"indent":0,"parameters":[]}],"moveFrequency":3,"moveRoute":{"list":[{"code":0,"parameters":[]}],"repeat":true,"skippable":false,"wait":false},"moveSpeed":3,"moveType":0,"priorityType":1,"stepAnime":false,"through":false,"trigger":0,"walkAnime":true}],"x":18,"y":27},
{"id":33,"name":"EV033","note":"","pages":[{"conditions":{"actorId":1,"actorValid":false,"itemId":1,"itemValid":false,"selfSwitchCh":"A","selfSwitchValid":false,"switch1Id":1,"switch1Valid":false,"switch2Id":1,"switch2Valid":false,"variableId":20,"variableValid":false,"variableValue":0},"directionFix":false,"image":{"characterIndex":0,"characterName":"","direction":2,"pattern":0,"tileId":0},"list":[{"code":101,"indent":0,"parameters":["SF_People1",2,0,2]},{"code":401,"indent":0,"parameters":["Wow. Gebohnert und Poliert."]},{"code":0,"indent":0,"parameters":[]}],"moveFrequency":3,"moveRoute":{"list":[{"code":0,"parameters":[]}],"repeat":true,"skippable":false,"wait":false},"moveSpeed":3,"moveType":0,"priorityType":1,"stepAnime":false,"through":false,"trigger":0,"walkAnime":true}],"x":18,"y":28},
{"id":34,"name":"EV034","note":"","pages":[{"conditions":{"actorId":1,"actorValid":false,"itemId":1,"itemValid":false,"selfSwitchCh":"A","selfSwitchValid":false,"switch1Id":1,"switch1Valid":false,"switch2Id":1,"switch2Valid":false,"variableId":20,"variableValid":false,"variableValue":0},"directionFix":false,"image":{"characterIndex":0,"characterName":"","direction":2,"pattern":0,"tileId":0},"list":[{"code":101,"indent":0,"parameters":["SF_People1",2,0,2]},{"code":401,"indent":0,"parameters":["Das ist ein normales Auto."]},{"code":0,"indent":0,"parameters":[]}],"moveFrequency":3,"moveRoute":{"list":[{"code":0,"parameters":[]}],"repeat":true,"skippable":false,"wait":false},"moveSpeed":3,"moveType":0,"priorityType":1,"stepAnime":false,"through":false,"trigger":0,"walkAnime":true}],"x":18,"y":29},
{"id":35,"name":"EV035","note":"","pages":[{"conditions":{"actorId":1,"actorValid":false,"itemId":1,"itemValid":false,"selfSwitchCh":"A","selfSwitchValid":false,"switch1Id":1,"switch1Valid":false,"switch2Id":1,"switch2Valid":false,"variableId":20,"variableValid":false,"variableValue":0},"directionFix":false,"image":{"characterIndex":0,"characterName":"","direction":2,"pattern":0,"tileId":0},"list":[{"code":101,"indent":0,"parameters":["SF_People1",2,0,2]},{"code":401,"indent":0,"parameters":["Die Fässer sind fest verschlossen. Ich kann"]},{"code":401,"indent":0,"parameters":["nur raten was drin ist."]},{"code":0,"indent":0,"parameters":[]}],"moveFrequency":3,"moveRoute":{"list":[{"code":0,"parameters":[]}],"repeat":true,"skippable":false,"wait":false},"moveSpeed":3,"moveType":0,"priorityType":1,"stepAnime":false,"through":false,"trigger":0,"walkAnime":true}],"x":25,"y":33},
{"id":36,"name":"EV036","note":"","pages":[{"conditions":{"actorId":1,"actorValid":false,"itemId":1,"itemValid":false,"selfSwitchCh":"A","selfSwitchValid":false,"switch1Id":1,"switch1Valid":false,"switch2Id":1,"switch2Valid":false,"variableId":20,"variableValid":false,"variableValue":0},"directionFix":false,"image":{"characterIndex":0,"characterName":"","direction":2,"pattern":0,"tileId":0},"list":[{"code":101,"indent":0,"parameters":["SF_People1",2,0,2]},{"code":401,"indent":0,"parameters":["Die Fässer sind fest verschlossen. Ich kann"]},{"code":401,"indent":0,"parameters":["nur raten was drin ist."]},{"code":0,"indent":0,"parameters":[]}],"moveFrequency":3,"moveRoute":{"list":[{"code":0,"parameters":[]}],"repeat":true,"skippable":false,"wait":false},"moveSpeed":3,"moveType":0,"priorityType":1,"stepAnime":false,"through":false,"trigger":0,"walkAnime":true}],"x":26,"y":33},
{"id":37,"name":"EV037","note":"","pages":[{"conditions":{"actorId":1,"actorValid":false,"itemId":1,"itemValid":false,"selfSwitchCh":"A","selfSwitchValid":false,"switch1Id":1,"switch1Valid":false,"switch2Id":1,"switch2Valid":false,"variableId":20,"variableValid":false,"variableValue":0},"directionFix":false,"image":{"characterIndex":0,"characterName":"","direction":2,"pattern":0,"tileId":0},"list":[{"code":101,"indent":0,"parameters":["SF_People1",2,0,2]},{"code":401,"indent":0,"parameters":["Ich glaube dieser Brunnen ist schon "]},{"code":401,"indent":0,"parameters":["ausgetrocknet."]},{"code":0,"indent":0,"parameters":[]}],"moveFrequency":3,"moveRoute":{"list":[{"code":0,"parameters":[]}],"repeat":true,"skippable":false,"wait":false},"moveSpeed":3,"moveType":0,"priorityType":1,"stepAnime":false,"through":false,"trigger":0,"walkAnime":true}],"x":28,"y":32},
{"id":38,"name":"EV038","note":"","pages":[{"conditions":{"actorId":1,"actorValid":false,"itemId":1,"itemValid":false,"selfSwitchCh":"A","selfSwitchValid":false,"switch1Id":1,"switch1Valid":false,"switch2Id":1,"switch2Valid":false,"variableId":1,"variableValid":false,"variableValue":0},"directionFix":false,"image":{"characterIndex":0,"characterName":"","direction":2,"pattern":0,"tileId":0},"list":[{"code":250,"indent":0,"parameters":[{"name":"Move1","pan":0,"pitch":100,"volume":90}]},{"code":201,"indent":0,"parameters":[0,2,5,29,8,0]},{"code":0,"indent":0,"parameters":[]}],"moveFrequency":3,"moveRoute":{"list":[{"code":0,"parameters":[]}],"repeat":true,"skippable":false,"wait":false},"moveSpeed":3,"moveType":0,"priorityType":0,"stepAnime":false,"through":false,"trigger":1,"walkAnime":true}],"x":5,"y":0},
{"id":39,"name":"EV039","note":"","pages":[{"conditions":{"actorId":1,"actorValid":false,"itemId":1,"itemValid":false,"selfSwitchCh":"A","selfSwitchValid":false,"switch1Id":1,"switch1Valid":false,"switch2Id":1,"switch2Valid":false,"variableId":20,"variableValid":false,"variableValue":0},"directionFix":false,"image":{"characterIndex":0,"characterName":"","direction":2,"pattern":0,"tileId":0},"list":[{"code":101,"indent":0,"parameters":["SF_People1",2,0,2]},{"code":401,"indent":0,"parameters":["Steinwalden hat wirklich viele Plätze auf"]},{"code":401,"indent":0,"parameters":["denen Kinder spielen können."]},{"code":0,"indent":0,"parameters":[]}],"moveFrequency":3,"moveRoute":{"list":[{"code":0,"parameters":[]}],"repeat":true,"skippable":false,"wait":false},"moveSpeed":3,"moveType":0,"priorityType":1,"stepAnime":false,"through":false,"trigger":0,"walkAnime":true}],"x":13,"y":29},
{"id":40,"name":"EV040","note":"","pages":[{"conditions":{"actorId":1,"actorValid":false,"itemId":1,"itemValid":false,"selfSwitchCh":"A","selfSwitchValid":false,"switch1Id":1,"switch1Valid":false,"switch2Id":1,"switch2Valid":false,"variableId":1,"variableValid":false,"variableValue":0},"directionFix":false,"image":{"characterIndex":0,"characterName":"","direction":2,"pattern":0,"tileId":0},"list":[{"code":101,"indent":0,"parameters":["",0,1,1]},{"code":401,"indent":0,"parameters":["              ↓ Bauernhof"]},{"code":401,"indent":0,"parameters":["              → Steinwalden-Zentrum"]},{"code":401,"indent":0,"parameters":["              ↑ Steinwalden-Nordwest"]},{"code":0,"indent":0,"parameters":[]}],"moveFrequency":3,"moveRoute":{"list":[{"code":0,"parameters":[]}],"repeat":true,"skippable":false,"wait":false},"moveSpeed":3,"moveType":0,"priorityType":1,"stepAnime":false,"through":false,"trigger":0,"walkAnime":true}],"x":19,"y":23},
{"id":41,"name":"EV041","note":"","pages":[{"conditions":{"actorId":1,"actorValid":false,"itemId":1,"itemValid":false,"selfSwitchCh":"A","selfSwitchValid":false,"switch1Id":1,"switch1Valid":false,"switch2Id":1,"switch2Valid":false,"variableId":1,"variableValid":false,"variableValue":0},"directionFix":false,"image":{"characterIndex":0,"characterName":"","direction":2,"pattern":0,"tileId":0},"list":[{"code":101,"indent":0,"parameters":["",0,1,1]},{"code":401,"indent":0,"parameters":["              ↓ Bauernhof"]},{"code":401,"indent":0,"parameters":["              → Steinwalden-Zentrum"]},{"code":401,"indent":0,"parameters":["              ↑ Steinwalden-Nordwest"]},{"code":0,"indent":0,"parameters":[]}],"moveFrequency":3,"moveRoute":{"list":[{"code":0,"parameters":[]}],"repeat":true,"skippable":false,"wait":false},"moveSpeed":3,"moveType":0,"priorityType":1,"stepAnime":false,"through":false,"trigger":0,"walkAnime":true}],"x":19,"y":47},
{"id":42,"name":"EV042","note":"","pages":[{"conditions":{"actorId":1,"actorValid":false,"itemId":1,"itemValid":false,"selfSwitchCh":"A","selfSwitchValid":false,"switch1Id":1,"switch1Valid":false,"switch2Id":1,"switch2Valid":false,"variableId":20,"variableValid":false,"variableValue":0},"directionFix":false,"image":{"characterIndex":0,"characterName":"","direction":2,"pattern":0,"tileId":0},"list":[{"code":101,"indent":0,"parameters":["",2,0,2]},{"code":401,"indent":0,"parameters":["- ZU VERKAUFEN -"]},{"code":0,"indent":0,"parameters":[]}],"moveFrequency":3,"moveRoute":{"list":[{"code":0,"parameters":[]}],"repeat":true,"skippable":false,"wait":false},"moveSpeed":3,"moveType":0,"priorityType":1,"stepAnime":false,"through":false,"trigger":0,"walkAnime":true}],"x":17,"y":44}
]
}