{
"autoplayBgm":true,"autoplayBgs":false,"battleback1Name":"","battleback2Name":"","bgm":{"name":"Town1","pan":0,"pitch":100,"volume":50},"bgs":{"name":"","pan":0,"pitch":100,"volume":90},"disableDashing":false,"displayName":"Eriks Laden","encounterList":[],"encounterStep":30,"height":12,"note":"","parallaxLoopX":false,"parallaxLoopY":false,"parallaxName":"","parallaxShow":true,"parallaxSx":0,"parallaxSy":0,"scrollType":0,"specifyBattleback":false,"tilesetId":7,"width":16,
"data":[6804,6828,6828,6828,6828,6828,6828,6828,6828,6828,6828,6828,6828,6828,6828,6808,6824,6882,6868,6868,6868,6868,6868,6868,6868,6868,6868,6868,6868,6868,6884,6816,6824,6888,6876,6876,6876,6876,6876,6876,6876,6876,6876,6876,6876,6876,6886,6816,6824,4059,4049,4049,4049,4049,4049,4038,4036,4036,4036,4036,4036,4036,4052,6816,6806,6833,6833,6833,6833,6833,6837,4032,4020,4044,4044,4024,4016,4016,4040,6816,6824,6882,6868,6868,6868,6884,6832,4032,4040,4098,4100,4032,4016,4016,4040,6816,6824,6888,6876,6876,6876,6886,6844,4032,4040,4080,4088,4032,4016,4016,4040,6816,6824,4050,4036,4036,4036,4052,6890,4032,4040,4080,4088,4032,4016,4016,4040,6816,6824,4032,4016,4016,4016,4040,6892,4032,4040,4080,4088,4032,4016,4016,4040,6816,6824,4032,4016,4016,4016,4018,4036,4017,4040,4080,4088,4032,4016,4016,4040,6816,6824,4056,4044,4044,4044,4044,4044,4044,4054,4080,4088,4056,4044,4044,4054,6816,6802,6820,6820,6820,6820,6820,6820,6820,6836,4080,4088,6834,6820,6820,6820,6801,0,0,0,0,0,0,0,0,0,0,0,0,0,0,0,0,0,0,0,0,0,0,0,0,0,0,0,0,0,0,0,0,0,0,0,0,0,0,0,0,0,0,0,0,0,0,0,0,0,0,0,0,0,0,0,0,0,0,0,0,0,0,0,0,0,0,0,0,0,0,0,0,0,0,0,0,0,0,0,0,0,0,0,0,0,0,0,0,0,0,0,0,0,0,0,0,0,0,0,0,0,0,0,0,0,0,0,0,0,0,0,0,0,0,0,0,0,0,0,0,0,0,0,0,0,0,0,0,0,0,0,0,0,0,0,0,0,0,0,0,0,0,0,0,0,0,0,0,0,0,0,0,0,0,0,0,0,0,0,0,0,0,0,0,0,0,0,0,0,0,0,0,0,0,0,0,0,0,0,0,0,0,0,0,0,0,0,0,0,0,0,0,0,0,0,0,0,0,0,0,0,0,0,0,0,0,0,0,0,0,0,0,0,0,0,0,0,0,0,0,0,0,0,0,0,0,0,0,0,0,0,0,0,0,0,0,0,0,0,0,0,0,0,0,0,0,0,0,0,0,0,0,0,0,0,0,0,0,0,0,0,0,0,388,0,0,0,0,0,0,0,0,0,0,0,0,0,0,0,396,0,0,0,0,0,0,0,0,0,0,0,0,0,0,0,0,0,0,0,0,0,0,0,0,0,452,0,0,0,0,0,0,0,0,0,0,0,0,0,0,0,456,417,418,387,0,0,0,0,0,0,0,0,0,0,0,0,0,0,0,0,0,0,0,0,0,0,0,0,0,0,0,0,0,0,0,0,0,0,0,0,0,0,0,0,0,0,0,0,0,0,0,0,0,0,0,0,0,0,0,0,0,0,0,0,0,0,0,0,0,0,0,0,0,0,0,0,0,0,0,0,488,489,490,488,0,296,297,298,320,321,322,299,300,301,0,0,496,497,498,497,468,304,305,306,328,329,330,307,308,309,0,0,504,505,506,505,476,312,313,314,336,337,338,315,316,317,0,0,0,0,0,0,0,0,27,0,0,0,0,323,324,325,0,0,436,0,445,446,0,0,31,0,0,0,0,331,332,333,0,0,444,440,441,442,443,0,404,0,0,0,0,339,340,341,0,0,408,448,449,450,451,455,0,0,0,0,0,278,279,0,0,0,416,457,474,459,0,463,0,0,0,0,0,286,287,0,0,0,424,425,426,404,0,0,0,0,0,0,0,294,295,0,0,0,0,0,0,0,0,0,0,0,0,0,0,302,303,0,0,0,0,0,0,0,0,0,0,0,0,0,0,0,0,0,0,0,0,0,0,0,0,0,0,0,0,0,0,0,0,0,0,0,0,0,0,0,0,0,0,0,0,0,0,0,0,0,0,0,0,0,0,0,0,0,0,0,0,0,0,0,0,0,0,0,5,0,0,0,0,0,0,0,0,0,0,0,0,0,0,0,0,0,0,0,0,0,0,0,0,0,0,0,0,0,0,0,0,0,0,0,0,0,5,0,0,0,0,0,0,0,0,0,0,0,0,0,0,0,5,0,0,0,0,0,0,0,0,0,5,0,0,0,0,0,5,0,0,0,0,0,0,0,0,0,5,0,0,0,0,0,5,0,0,0,0,0,0,0,0,0,5,0,0,0,0,0,0,0,0,0,0,0,0,0,0,0,5,0,0,0,0,0,0,0,0,0,0,0,0,0,0,0,0,0,0,0,0,0,0,0,0,0,0,0,0,0,0,0,0,0,0,0,0,0,0,0,0,0,0,0,0,0,0,0,0,0,0,0,0,0,0,0,0,0,0,0,0,0,0,0,0,0,0,0,0,0,0,0,0,0,0,0,0,0,0,0,0,0,0,0,0,0,0,0,0,0,0,0,0,0,0,0,0,0,0,0,0,0,0,0,0,0,0,0,0,0,0,0,0,0,0,0,0,0,0,0,0,0,0,0,0,0,0,0,0,0,0,0,0,0,0,0,0,0,0,0,0,0,0,0,0,0,0,0,0,0,0,0,0,0,0,0,0,0,0,0,0,0,0,0,0,0,0,0,0,0,0,0,0,0,0,0,0,0,0,0,0,0,0,0,0,0,0,0,0,0,0,0,0,0,0,0,0,0,0,0,0,0,0,0,0,0,0,0,0,0,0,0,0,0,0,0,0,0,0,0,0,0,0],
"events":[
null,
{"id":1,"name":"EV001","note":"","pages":[{"conditions":{"actorId":1,"actorValid":false,"itemId":1,"itemValid":false,"selfSwitchCh":"A","selfSwitchValid":false,"switch1Id":1,"switch1Valid":false,"switch2Id":1,"switch2Valid":false,"variableId":1,"variableValid":false,"variableValue":0},"directionFix":false,"image":{"characterIndex":0,"characterName":"","direction":2,"pattern":0,"tileId":0},"list":[{"code":101,"indent":0,"parameters":["",0,0,2]},{"code":401,"indent":0,"parameters":["Eine Flasche Weißwein."]},{"code":401,"indent":0,"parameters":["Trockener Weißburgunder mit deutscher Qualität. "]},{"code":0,"indent":0,"parameters":[]}],"moveFrequency":3,"moveRoute":{"list":[{"code":0,"parameters":[]}],"repeat":true,"skippable":false,"wait":false},"moveSpeed":3,"moveType":0,"priorityType":1,"stepAnime":false,"through":false,"trigger":0,"walkAnime":true},{"conditions":{"actorId":1,"actorValid":false,"itemId":1,"itemValid":false,"selfSwitchCh":"A","selfSwitchValid":false,"switch1Id":81,"switch1Valid":true,"switch2Id":1,"switch2Valid":false,"variableId":1,"variableValid":false,"variableValue":0},"directionFix":false,"image":{"characterIndex":0,"characterName":"","direction":2,"pattern":0,"tileId":0},"list":[{"code":101,"indent":0,"parameters":["",0,0,2]},{"code":401,"indent":0,"parameters":["Eine Flasche Weißwein."]},{"code":401,"indent":0,"parameters":["Trockener Weißburgunder mit deutscher Qualität. "]},{"code":101,"indent":0,"parameters":["",0,0,2]},{"code":401,"indent":0,"parameters":["Möchtest du diese Flasche nehmen?"]},{"code":102,"indent":0,"parameters":[["Ja","Nein"],1,0,2,0]},{"code":402,"indent":0,"parameters":[0,"Ja"]},{"code":101,"indent":1,"parameters":["",0,0,2]},{"code":401,"indent":1,"parameters":["Du hast ein Flasche Wein erhalten."]},{"code":126,"indent":1,"parameters":[1,0,0,1]},{"code":121,"indent":1,"parameters":[5,5,0]},{"code":121,"indent":1,"parameters":[81,81,1]},{"code":0,"indent":1,"parameters":[]},{"code":402,"indent":0,"parameters":[1,"Nein"]},{"code":0,"indent":1,"parameters":[]},{"code":404,"indent":0,"parameters":[]},{"code":0,"indent":0,"parameters":[]}],"moveFrequency":3,"moveRoute":{"list":[{"code":0,"parameters":[]}],"repeat":true,"skippable":false,"wait":false},"moveSpeed":3,"moveType":0,"priorityType":1,"stepAnime":false,"through":false,"trigger":0,"walkAnime":true}],"x":7,"y":5},
{"id":2,"name":"EV002","note":"","pages":[{"conditions":{"actorId":1,"actorValid":false,"itemId":1,"itemValid":false,"selfSwitchCh":"A","selfSwitchValid":false,"switch1Id":1,"switch1Valid":false,"switch2Id":1,"switch2Valid":false,"variableId":1,"variableValid":false,"variableValue":0},"directionFix":false,"image":{"characterIndex":0,"characterName":"","direction":2,"pattern":0,"tileId":0},"list":[{"code":101,"indent":0,"parameters":["",0,0,2]},{"code":401,"indent":0,"parameters":["Eine Flasche Rotwein halbtrocken, mit Trauben gereift"]},{"code":401,"indent":0,"parameters":["aus Frankreich."]},{"code":0,"indent":0,"parameters":[]}],"moveFrequency":3,"moveRoute":{"list":[{"code":0,"parameters":[]}],"repeat":true,"skippable":false,"wait":false},"moveSpeed":3,"moveType":0,"priorityType":1,"stepAnime":false,"through":false,"trigger":0,"walkAnime":true},{"conditions":{"actorId":1,"actorValid":false,"itemId":1,"itemValid":false,"selfSwitchCh":"A","selfSwitchValid":false,"switch1Id":81,"switch1Valid":true,"switch2Id":1,"switch2Valid":false,"variableId":1,"variableValid":false,"variableValue":0},"directionFix":false,"image":{"characterIndex":0,"characterName":"","direction":2,"pattern":0,"tileId":0},"list":[{"code":101,"indent":0,"parameters":["",0,0,2]},{"code":401,"indent":0,"parameters":["Eine Flasche Rotwein halbtrocken, mit Trauben gereift"]},{"code":401,"indent":0,"parameters":["aus Frankreich."]},{"code":101,"indent":0,"parameters":["",0,0,2]},{"code":401,"indent":0,"parameters":["Möchtest du diese Flasche nehmen?"]},{"code":102,"indent":0,"parameters":[["Ja","Nein"],1,0,2,0]},{"code":402,"indent":0,"parameters":[0,"Ja"]},{"code":101,"indent":1,"parameters":["",0,0,2]},{"code":401,"indent":1,"parameters":["Du hast ein Flasche Wein erhalten."]},{"code":126,"indent":1,"parameters":[1,0,0,1]},{"code":121,"indent":1,"parameters":[5,5,0]},{"code":121,"indent":1,"parameters":[81,81,1]},{"code":0,"indent":1,"parameters":[]},{"code":402,"indent":0,"parameters":[1,"Nein"]},{"code":0,"indent":1,"parameters":[]},{"code":404,"indent":0,"parameters":[]},{"code":0,"indent":0,"parameters":[]}],"moveFrequency":3,"moveRoute":{"list":[{"code":0,"parameters":[]}],"repeat":true,"skippable":false,"wait":false},"moveSpeed":3,"moveType":0,"priorityType":1,"stepAnime":false,"through":false,"trigger":0,"walkAnime":true}],"x":7,"y":4},
{"id":3,"name":"EV003","note":"","pages":[{"conditions":{"actorId":1,"actorValid":false,"itemId":1,"itemValid":false,"selfSwitchCh":"A","selfSwitchValid":false,"switch1Id":4,"switch1Valid":true,"switch2Id":1,"switch2Valid":false,"variableId":1,"variableValid":false,"variableValue":0},"directionFix":false,"image":{"tileId":0,"characterName":"SF_Actor3","direction":2,"pattern":1,"characterIndex":0},"list":[{"code":101,"indent":0,"parameters":["SF_Actor3",0,0,2]},{"code":401,"indent":0,"parameters":["Ah, du musst der Neue sein. Ich bin Erik. "]},{"code":401,"indent":0,"parameters":["Freut mich dich kennen zu lernen."]},{"code":101,"indent":0,"parameters":["SF_People1",2,0,2]},{"code":401,"indent":0,"parameters":["Hallo. Ich bin Thomas. "]},{"code":401,"indent":0,"parameters":["Meine Frau und ich wollen heute Abend die "]},{"code":401,"indent":0,"parameters":["Nachbarschaft zum Essen einladen und wir "]},{"code":401,"indent":0,"parameters":["brauchen noch einen Wein für diesen Anlass."]},{"code":101,"indent":0,"parameters":["SF_Actor3",0,0,2]},{"code":401,"indent":0,"parameters":["Na das ist doch eine nette Geste. Zur Feier"]},{"code":401,"indent":0,"parameters":["des Tages gebe ich euch meine beste Sorte "]},{"code":401,"indent":0,"parameters":["umsonst."]},{"code":101,"indent":0,"parameters":["SF_People1",2,0,2]},{"code":401,"indent":0,"parameters":["Wahnsinn. Vielen Dank. "]},{"code":101,"indent":0,"parameters":["SF_Actor3",0,0,2]},{"code":401,"indent":0,"parameters":["Nimm dir einfach eine Flasche weg, die du "]},{"code":401,"indent":0,"parameters":["gerne haben möchtest."]},{"code":123,"indent":0,"parameters":["A",0]},{"code":121,"indent":0,"parameters":[81,81,0]},{"code":0,"indent":0,"parameters":[]}],"moveFrequency":3,"moveRoute":{"list":[{"code":0,"parameters":[]}],"repeat":true,"skippable":false,"wait":false},"moveSpeed":3,"moveType":0,"priorityType":1,"stepAnime":false,"through":false,"trigger":0,"walkAnime":true},{"conditions":{"actorId":1,"actorValid":false,"itemId":1,"itemValid":false,"selfSwitchCh":"A","selfSwitchValid":true,"switch1Id":1,"switch1Valid":false,"switch2Id":1,"switch2Valid":false,"variableId":1,"variableValid":false,"variableValue":0},"directionFix":false,"image":{"tileId":0,"characterName":"SF_Actor3","direction":2,"pattern":1,"characterIndex":0},"list":[{"code":101,"indent":0,"parameters":["SF_Actor3",0,0,2]},{"code":401,"indent":0,"parameters":["Ich hoffe der Wein schmeckt euch. Komm "]},{"code":401,"indent":0,"parameters":["gerne wieder wenn ihr etwas braucht."]},{"code":401,"indent":0,"parameters":["Und denk dran Erik´s Laden hat einfach "]},{"code":401,"indent":0,"parameters":["alles, vorallem gute Preise."]},{"code":0,"indent":0,"parameters":[]}],"moveFrequency":3,"moveRoute":{"list":[{"code":0,"parameters":[]}],"repeat":true,"skippable":false,"wait":false},"moveSpeed":3,"moveType":0,"priorityType":1,"stepAnime":false,"through":false,"trigger":0,"walkAnime":true},{"conditions":{"actorId":1,"actorValid":false,"itemId":1,"itemValid":false,"selfSwitchCh":"A","selfSwitchValid":false,"switch1Id":25,"switch1Valid":true,"switch2Id":1,"switch2Valid":false,"variableId":1,"variableValid":false,"variableValue":0},"directionFix":false,"image":{"tileId":0,"characterName":"SF_Actor3","direction":2,"pattern":1,"characterIndex":0},"list":[{"code":101,"indent":0,"parameters":["SF_Actor3",0,0,2]},{"code":401,"indent":0,"parameters":["Grüß dich. Was brauchst du, mein Junge?"]},{"code":101,"indent":0,"parameters":["SF_People1",2,0,2]},{"code":401,"indent":0,"parameters":["Hallo Erik, schön dich wieder zu sehen!"]},{"code":101,"indent":0,"parameters":["SF_Actor3",0,0,2]},{"code":401,"indent":0,"parameters":["Wieder? Kennen wir uns denn etwa schon?"]},{"code":101,"indent":0,"parameters":["SF_People1",2,0,2]},{"code":401,"indent":0,"parameters":["(Oh nein, nicht das schon wieder. Ich "]},{"code":401,"indent":0,"parameters":["sollte es für jetzt einfach ignorieren.)"]},{"code":101,"indent":0,"parameters":["SF_People1",2,0,2]},{"code":401,"indent":0,"parameters":["Entschuldigung, da hab ich mich vertan. "]},{"code":401,"indent":0,"parameters":["Ich bin neu im Dorf und heiße Thomas."]},{"code":101,"indent":0,"parameters":["SF_People1",2,0,2]},{"code":401,"indent":0,"parameters":["Könntest du mir eine kurze Frage beant-"]},{"code":401,"indent":0,"parameters":["worten? Ich würde gerne wissen, ob du den"]},{"code":401,"indent":0,"parameters":["Bürgermeister des Ortes kennst?"]},{"code":101,"indent":0,"parameters":["SF_Actor3",0,0,2]},{"code":401,"indent":0,"parameters":["Eigentlich kenne ich hier ja jeden, aber"]},{"code":401,"indent":0,"parameters":["ein Bürgermeister kauft hier bei mir nicht"]},{"code":401,"indent":0,"parameters":["ein, soviel ich weiß. Wieso fragst du?"]},{"code":101,"indent":0,"parameters":["SF_People1",2,0,2]},{"code":401,"indent":0,"parameters":["Ich bin auf der Suche nach ihm. Vor fünf"]},{"code":401,"indent":0,"parameters":["Jahren soll er auf jeden Fall noch hier"]},{"code":401,"indent":0,"parameters":["gewesen sein, aber ich weiß nicht, was mit"]},{"code":401,"indent":0,"parameters":["ihm geschehen ist."]},{"code":101,"indent":0,"parameters":["SF_Actor3",0,0,2]},{"code":401,"indent":0,"parameters":["Vor fünf Jahren? Tut mir leid, da weiß ich"]},{"code":401,"indent":0,"parameters":["wirklich nichts. Kann ich dir denn sonst"]},{"code":401,"indent":0,"parameters":["noch weiterhelfen? Vielleicht mit einem"]},{"code":401,"indent":0,"parameters":["Sonderpreis?"]},{"code":101,"indent":0,"parameters":["SF_People1",2,0,2]},{"code":401,"indent":0,"parameters":["Nein, alles gut, aber auf den Sonderpreis"]},{"code":401,"indent":0,"parameters":["komme ich gerne demnächst einmal zurück."]},{"code":401,"indent":0,"parameters":["Auf Wiedersehen."]},{"code":101,"indent":0,"parameters":["SF_Actor3",0,0,2]},{"code":401,"indent":0,"parameters":["Alles klar, aber denk dran: Erik's Laden "]},{"code":401,"indent":0,"parameters":["hat einfach alles, vor allem gute Preise."]},{"code":401,"indent":0,"parameters":["Aber Sonderpreise gibt es nur für kurze "]},{"code":401,"indent":0,"parameters":["Zeit!"]},{"code":122,"indent":0,"parameters":[10,10,1,0,1]},{"code":111,"indent":0,"parameters":[1,10,0,3,0]},{"code":205,"indent":1,"parameters":[-1,{"list":[{"code":1,"indent":null},{"code":1,"indent":null},{"code":18,"indent":null},{"code":0}],"repeat":false,"skippable":true,"wait":true}]},{"code":505,"indent":1,"parameters":[{"code":1,"indent":null}]},{"code":505,"indent":1,"parameters":[{"code":1,"indent":null}]},{"code":505,"indent":1,"parameters":[{"code":18,"indent":null}]},{"code":101,"indent":1,"parameters":["SF_People1",2,0,2]},{"code":401,"indent":1,"parameters":["Hier scheint sich wirklich niemand an den"]},{"code":401,"indent":1,"parameters":["Bürgermeister zu erinnen. Ich sollte mich"]},{"code":401,"indent":1,"parameters":["an den Postboten vom Stadtrand wenden. Er"]},{"code":401,"indent":1,"parameters":["schien sich an die Zeit vor 5 Jahren "]},{"code":101,"indent":1,"parameters":["SF_People1",2,0,2]},{"code":401,"indent":1,"parameters":["erinnern zu können."]},{"code":121,"indent":1,"parameters":[25,25,1]},{"code":121,"indent":1,"parameters":[26,26,0]},{"code":0,"indent":1,"parameters":[]},{"code":412,"indent":0,"parameters":[]},{"code":123,"indent":0,"parameters":["B",0]},{"code":0,"indent":0,"parameters":[]}],"moveFrequency":3,"moveRoute":{"list":[{"code":0,"parameters":[]}],"repeat":true,"skippable":false,"wait":false},"moveSpeed":3,"moveType":0,"priorityType":1,"stepAnime":false,"through":false,"trigger":0,"walkAnime":true},{"conditions":{"actorId":1,"actorValid":false,"itemId":1,"itemValid":false,"selfSwitchCh":"B","selfSwitchValid":true,"switch1Id":1,"switch1Valid":false,"switch2Id":1,"switch2Valid":false,"variableId":1,"variableValid":false,"variableValue":0},"directionFix":false,"image":{"tileId":0,"characterName":"SF_Actor3","direction":2,"pattern":1,"characterIndex":0},"list":[{"code":101,"indent":0,"parameters":["SF_Actor3",0,0,2]},{"code":401,"indent":0,"parameters":["Nur heute: Sonderpreis auf Nuss-Produkte!"]},{"code":401,"indent":0,"parameters":["Da lohnt es sich, zuzugreifen. Außer man"]},{"code":401,"indent":0,"parameters":["ist Allergiker..."]},{"code":0,"indent":0,"parameters":[]}],"moveFrequency":3,"moveRoute":{"list":[{"code":0,"parameters":[]}],"repeat":true,"skippable":false,"wait":false},"moveSpeed":3,"moveType":0,"priorityType":1,"stepAnime":false,"through":false,"trigger":0,"walkAnime":true}],"x":5,"y":8},
{"id":4,"name":"EV004","note":"","pages":[{"conditions":{"actorId":1,"actorValid":false,"itemId":1,"itemValid":false,"selfSwitchCh":"A","selfSwitchValid":false,"switch1Id":1,"switch1Valid":false,"switch2Id":1,"switch2Valid":false,"variableId":1,"variableValid":false,"variableValue":0},"directionFix":false,"image":{"characterIndex":0,"characterName":"","direction":2,"pattern":0,"tileId":0},"list":[{"code":250,"indent":0,"parameters":[{"name":"Move1","pan":0,"pitch":100,"volume":90}]},{"code":201,"indent":0,"parameters":[0,1,34,40,2,0]},{"code":0,"indent":0,"parameters":[]}],"moveFrequency":3,"moveRoute":{"list":[{"code":0,"parameters":[]}],"repeat":true,"skippable":false,"wait":false},"moveSpeed":3,"moveType":0,"priorityType":0,"stepAnime":false,"through":false,"trigger":1,"walkAnime":true}],"x":9,"y":11},
{"id":5,"name":"EV005","note":"","pages":[{"conditions":{"actorId":1,"actorValid":false,"itemId":1,"itemValid":false,"selfSwitchCh":"A","selfSwitchValid":false,"switch1Id":1,"switch1Valid":false,"switch2Id":1,"switch2Valid":false,"variableId":1,"variableValid":false,"variableValue":0},"directionFix":false,"image":{"characterIndex":0,"characterName":"","direction":2,"pattern":0,"tileId":0},"list":[{"code":250,"indent":0,"parameters":[{"name":"Move1","pan":0,"pitch":100,"volume":90}]},{"code":201,"indent":0,"parameters":[0,1,34,40,2,0]},{"code":0,"indent":0,"parameters":[]}],"moveFrequency":3,"moveRoute":{"list":[{"code":0,"parameters":[]}],"repeat":true,"skippable":false,"wait":false},"moveSpeed":3,"moveType":0,"priorityType":0,"stepAnime":false,"through":false,"trigger":1,"walkAnime":true}],"x":10,"y":11},
{"id":6,"name":"EV006","note":"","pages":[{"conditions":{"actorId":1,"actorValid":false,"itemId":1,"itemValid":false,"selfSwitchCh":"A","selfSwitchValid":false,"switch1Id":1,"switch1Valid":false,"switch2Id":1,"switch2Valid":false,"variableId":1,"variableValid":false,"variableValue":0},"directionFix":false,"image":{"characterIndex":0,"characterName":"","direction":2,"pattern":0,"tileId":0},"list":[{"code":101,"indent":0,"parameters":["SF_People1",2,0,2]},{"code":401,"indent":0,"parameters":["Bohnen sind Julias Lieblingsessen."]},{"code":401,"indent":0,"parameters":["Vielleicht sollte ich welche mitnehmen."]},{"code":0,"indent":0,"parameters":[]}],"moveFrequency":3,"moveRoute":{"list":[{"code":0,"parameters":[]}],"repeat":true,"skippable":false,"wait":false},"moveSpeed":3,"moveType":0,"priorityType":1,"stepAnime":false,"through":false,"trigger":0,"walkAnime":true}],"x":13,"y":2},
{"id":7,"name":"EV007","note":"","pages":[{"conditions":{"actorId":1,"actorValid":false,"itemId":1,"itemValid":false,"selfSwitchCh":"A","selfSwitchValid":false,"switch1Id":1,"switch1Valid":false,"switch2Id":1,"switch2Valid":false,"variableId":1,"variableValid":false,"variableValue":0},"directionFix":false,"image":{"characterIndex":0,"characterName":"","direction":2,"pattern":0,"tileId":0},"list":[{"code":101,"indent":0,"parameters":["SF_People1",2,0,2]},{"code":401,"indent":0,"parameters":["Dieses Waschmittel soll laut der Werbung"]},{"code":401,"indent":0,"parameters":["auch bei 30°C alle Flecken rausbekommen."]},{"code":401,"indent":0,"parameters":["Ob das stimmt?"]},{"code":0,"indent":0,"parameters":[]}],"moveFrequency":3,"moveRoute":{"list":[{"code":0,"parameters":[]}],"repeat":true,"skippable":false,"wait":false},"moveSpeed":3,"moveType":0,"priorityType":1,"stepAnime":false,"through":false,"trigger":0,"walkAnime":true}],"x":7,"y":2},
{"id":8,"name":"EV008","note":"","pages":[{"conditions":{"actorId":1,"actorValid":false,"itemId":1,"itemValid":false,"selfSwitchCh":"A","selfSwitchValid":false,"switch1Id":1,"switch1Valid":false,"switch2Id":1,"switch2Valid":false,"variableId":1,"variableValid":false,"variableValue":0},"directionFix":false,"image":{"characterIndex":0,"characterName":"","direction":2,"pattern":0,"tileId":0},"list":[{"code":101,"indent":0,"parameters":["SF_People1",2,0,2]},{"code":401,"indent":0,"parameters":["Wie gerne ich mal wieder Chips kaufen "]},{"code":401,"indent":0,"parameters":["würde. Leider bin ich auf Diät."]},{"code":0,"indent":0,"parameters":[]}],"moveFrequency":3,"moveRoute":{"list":[{"code":0,"parameters":[]}],"repeat":true,"skippable":false,"wait":false},"moveSpeed":3,"moveType":0,"priorityType":1,"stepAnime":false,"through":false,"trigger":0,"walkAnime":true}],"x":10,"y":2},
{"id":9,"name":"EV009","note":"","pages":[{"conditions":{"actorId":1,"actorValid":false,"itemId":1,"itemValid":false,"selfSwitchCh":"A","selfSwitchValid":false,"switch1Id":1,"switch1Valid":false,"switch2Id":1,"switch2Valid":false,"variableId":1,"variableValid":false,"variableValue":0},"directionFix":false,"image":{"characterIndex":0,"characterName":"","direction":2,"pattern":0,"tileId":0},"list":[{"code":101,"indent":0,"parameters":["",2,0,2]},{"code":401,"indent":0,"parameters":["\"Jetzt neu: Nimm 3, Zahl 2! Gilt für alle "]},{"code":401,"indent":0,"parameters":["alkoholischen Getränke\""]},{"code":0,"indent":0,"parameters":[]}],"moveFrequency":3,"moveRoute":{"list":[{"code":0,"parameters":[]}],"repeat":true,"skippable":false,"wait":false},"moveSpeed":3,"moveType":0,"priorityType":1,"stepAnime":false,"through":false,"trigger":0,"walkAnime":true}],"x":6,"y":8},
{"id":10,"name":"EV010","note":"","pages":[{"conditions":{"actorId":1,"actorValid":false,"itemId":1,"itemValid":false,"selfSwitchCh":"A","selfSwitchValid":false,"switch1Id":1,"switch1Valid":false,"switch2Id":1,"switch2Valid":false,"variableId":1,"variableValid":false,"variableValue":0},"directionFix":false,"image":{"characterIndex":0,"characterName":"","direction":2,"pattern":0,"tileId":0},"list":[{"code":101,"indent":0,"parameters":["SF_People1",2,0,2]},{"code":401,"indent":0,"parameters":["Bohnen sind Julias Lieblingsessen."]},{"code":401,"indent":0,"parameters":["Vielleicht sollte ich welche mitnehmen."]},{"code":0,"indent":0,"parameters":[]}],"moveFrequency":3,"moveRoute":{"list":[{"code":0,"parameters":[]}],"repeat":true,"skippable":false,"wait":false},"moveSpeed":3,"moveType":0,"priorityType":1,"stepAnime":false,"through":false,"trigger":0,"walkAnime":true}],"x":14,"y":2},
{"id":11,"name":"EV011","note":"","pages":[{"conditions":{"actorId":1,"actorValid":false,"itemId":1,"itemValid":false,"selfSwitchCh":"A","selfSwitchValid":false,"switch1Id":1,"switch1Valid":false,"switch2Id":1,"switch2Valid":false,"variableId":1,"variableValid":false,"variableValue":0},"directionFix":false,"image":{"characterIndex":0,"characterName":"","direction":2,"pattern":0,"tileId":0},"list":[{"code":101,"indent":0,"parameters":["SF_People1",2,0,2]},{"code":401,"indent":0,"parameters":["Bohnen sind Julias Lieblingsessen."]},{"code":401,"indent":0,"parameters":["Vielleicht sollte ich welche mitnehmen."]},{"code":0,"indent":0,"parameters":[]}],"moveFrequency":3,"moveRoute":{"list":[{"code":0,"parameters":[]}],"repeat":true,"skippable":false,"wait":false},"moveSpeed":3,"moveType":0,"priorityType":1,"stepAnime":false,"through":false,"trigger":0,"walkAnime":true}],"x":12,"y":2},
{"id":12,"name":"EV012","note":"","pages":[{"conditions":{"actorId":1,"actorValid":false,"itemId":1,"itemValid":false,"selfSwitchCh":"A","selfSwitchValid":false,"switch1Id":1,"switch1Valid":false,"switch2Id":1,"switch2Valid":false,"variableId":1,"variableValid":false,"variableValue":0},"directionFix":false,"image":{"characterIndex":0,"characterName":"","direction":2,"pattern":0,"tileId":0},"list":[{"code":101,"indent":0,"parameters":["SF_People1",2,0,2]},{"code":401,"indent":0,"parameters":["Wie gerne ich mal wieder Chips kaufen "]},{"code":401,"indent":0,"parameters":["würde. Leider bin ich auf Diät."]},{"code":0,"indent":0,"parameters":[]}],"moveFrequency":3,"moveRoute":{"list":[{"code":0,"parameters":[]}],"repeat":true,"skippable":false,"wait":false},"moveSpeed":3,"moveType":0,"priorityType":1,"stepAnime":false,"through":false,"trigger":0,"walkAnime":true}],"x":11,"y":2},
{"id":13,"name":"EV013","note":"","pages":[{"conditions":{"actorId":1,"actorValid":false,"itemId":1,"itemValid":false,"selfSwitchCh":"A","selfSwitchValid":false,"switch1Id":1,"switch1Valid":false,"switch2Id":1,"switch2Valid":false,"variableId":1,"variableValid":false,"variableValue":0},"directionFix":false,"image":{"characterIndex":0,"characterName":"","direction":2,"pattern":0,"tileId":0},"list":[{"code":101,"indent":0,"parameters":["SF_People1",2,0,2]},{"code":401,"indent":0,"parameters":["Wie gerne ich mal wieder Chips kaufen "]},{"code":401,"indent":0,"parameters":["würde. Leider bin ich auf Diät."]},{"code":0,"indent":0,"parameters":[]}],"moveFrequency":3,"moveRoute":{"list":[{"code":0,"parameters":[]}],"repeat":true,"skippable":false,"wait":false},"moveSpeed":3,"moveType":0,"priorityType":1,"stepAnime":false,"through":false,"trigger":0,"walkAnime":true}],"x":9,"y":2},
{"id":14,"name":"EV014","note":"","pages":[{"conditions":{"actorId":1,"actorValid":false,"itemId":1,"itemValid":false,"selfSwitchCh":"A","selfSwitchValid":false,"switch1Id":1,"switch1Valid":false,"switch2Id":1,"switch2Valid":false,"variableId":1,"variableValid":false,"variableValue":0},"directionFix":false,"image":{"characterIndex":0,"characterName":"","direction":2,"pattern":0,"tileId":0},"list":[{"code":101,"indent":0,"parameters":["SF_People1",2,0,2]},{"code":401,"indent":0,"parameters":["Dieses Waschmittel soll laut der Werbung"]},{"code":401,"indent":0,"parameters":["auch bei 30°C alle Flecken rausbekommen."]},{"code":401,"indent":0,"parameters":["Ob das stimmt?"]},{"code":0,"indent":0,"parameters":[]}],"moveFrequency":3,"moveRoute":{"list":[{"code":0,"parameters":[]}],"repeat":true,"skippable":false,"wait":false},"moveSpeed":3,"moveType":0,"priorityType":1,"stepAnime":false,"through":false,"trigger":0,"walkAnime":true}],"x":8,"y":2},
{"id":15,"name":"EV015","note":"","pages":[{"conditions":{"actorId":1,"actorValid":false,"itemId":1,"itemValid":false,"selfSwitchCh":"A","selfSwitchValid":false,"switch1Id":1,"switch1Valid":false,"switch2Id":1,"switch2Valid":false,"variableId":1,"variableValid":false,"variableValue":0},"directionFix":false,"image":{"characterIndex":0,"characterName":"","direction":2,"pattern":0,"tileId":0},"list":[{"code":101,"indent":0,"parameters":["SF_People1",2,0,2]},{"code":401,"indent":0,"parameters":["Dieses Waschmittel soll laut der Werbung"]},{"code":401,"indent":0,"parameters":["auch bei 30°C alle Flecken rausbekommen."]},{"code":401,"indent":0,"parameters":["Ob das stimmt?"]},{"code":0,"indent":0,"parameters":[]}],"moveFrequency":3,"moveRoute":{"list":[{"code":0,"parameters":[]}],"repeat":true,"skippable":false,"wait":false},"moveSpeed":3,"moveType":0,"priorityType":1,"stepAnime":false,"through":false,"trigger":0,"walkAnime":true}],"x":6,"y":2},
{"id":16,"name":"EV016","note":"","pages":[{"conditions":{"actorId":1,"actorValid":false,"itemId":1,"itemValid":false,"selfSwitchCh":"A","selfSwitchValid":false,"switch1Id":1,"switch1Valid":false,"switch2Id":1,"switch2Valid":false,"variableId":1,"variableValid":false,"variableValue":0},"directionFix":false,"image":{"characterIndex":0,"characterName":"","direction":2,"pattern":0,"tileId":0},"list":[{"code":101,"indent":0,"parameters":["SF_People1",2,0,2]},{"code":401,"indent":0,"parameters":["Essiggurken für 99 Cent? Das ist wirklich"]},{"code":401,"indent":0,"parameters":["ein Schnäppchen."]},{"code":0,"indent":0,"parameters":[]}],"moveFrequency":3,"moveRoute":{"list":[{"code":0,"parameters":[]}],"repeat":true,"skippable":false,"wait":false},"moveSpeed":3,"moveType":0,"priorityType":1,"stepAnime":false,"through":false,"trigger":0,"walkAnime":true}],"x":12,"y":5},
{"id":17,"name":"EV017","note":"","pages":[{"conditions":{"actorId":1,"actorValid":false,"itemId":1,"itemValid":false,"selfSwitchCh":"A","selfSwitchValid":false,"switch1Id":1,"switch1Valid":false,"switch2Id":1,"switch2Valid":false,"variableId":1,"variableValid":false,"variableValue":0},"directionFix":false,"image":{"characterIndex":0,"characterName":"","direction":2,"pattern":0,"tileId":0},"list":[{"code":101,"indent":0,"parameters":["SF_People1",2,0,2]},{"code":401,"indent":0,"parameters":["Essiggurken für 99 Cent? Das ist wirklich"]},{"code":401,"indent":0,"parameters":["ein Schnäppchen."]},{"code":0,"indent":0,"parameters":[]}],"moveFrequency":3,"moveRoute":{"list":[{"code":0,"parameters":[]}],"repeat":true,"skippable":false,"wait":false},"moveSpeed":3,"moveType":0,"priorityType":1,"stepAnime":false,"through":false,"trigger":0,"walkAnime":true}],"x":13,"y":5},
{"id":18,"name":"EV018","note":"","pages":[{"conditions":{"actorId":1,"actorValid":false,"itemId":1,"itemValid":false,"selfSwitchCh":"A","selfSwitchValid":false,"switch1Id":1,"switch1Valid":false,"switch2Id":1,"switch2Valid":false,"variableId":1,"variableValid":false,"variableValue":0},"directionFix":false,"image":{"characterIndex":0,"characterName":"","direction":2,"pattern":0,"tileId":0},"list":[{"code":101,"indent":0,"parameters":["SF_People1",2,0,2]},{"code":401,"indent":0,"parameters":["Essiggurken für 99 Cent? Das ist wirklich"]},{"code":401,"indent":0,"parameters":["ein Schnäppchen."]},{"code":0,"indent":0,"parameters":[]}],"moveFrequency":3,"moveRoute":{"list":[{"code":0,"parameters":[]}],"repeat":true,"skippable":false,"wait":false},"moveSpeed":3,"moveType":0,"priorityType":1,"stepAnime":false,"through":false,"trigger":0,"walkAnime":true}],"x":14,"y":5},
{"id":19,"name":"EV019","note":"","pages":[{"conditions":{"actorId":1,"actorValid":false,"itemId":1,"itemValid":false,"selfSwitchCh":"A","selfSwitchValid":false,"switch1Id":1,"switch1Valid":false,"switch2Id":1,"switch2Valid":false,"variableId":1,"variableValid":false,"variableValue":0},"directionFix":false,"image":{"characterIndex":0,"characterName":"","direction":2,"pattern":0,"tileId":0},"list":[{"code":101,"indent":0,"parameters":["SF_People1",2,0,2]},{"code":401,"indent":0,"parameters":["Hier gibt es wirklich ein paar interessante"]},{"code":401,"indent":0,"parameters":["Magazine. Das \"Sternchen\", der "]},{"code":401,"indent":0,"parameters":["\"Wirtschaftsmonat\" und das \"Foto der Frau\"."]},{"code":0,"indent":0,"parameters":[]}],"moveFrequency":3,"moveRoute":{"list":[{"code":0,"parameters":[]}],"repeat":true,"skippable":false,"wait":false},"moveSpeed":3,"moveType":0,"priorityType":1,"stepAnime":false,"through":false,"trigger":0,"walkAnime":true}],"x":12,"y":8},
{"id":20,"name":"EV020","note":"","pages":[{"conditions":{"actorId":1,"actorValid":false,"itemId":1,"itemValid":false,"selfSwitchCh":"A","selfSwitchValid":false,"switch1Id":1,"switch1Valid":false,"switch2Id":1,"switch2Valid":false,"variableId":1,"variableValid":false,"variableValue":0},"directionFix":false,"image":{"characterIndex":0,"characterName":"","direction":2,"pattern":0,"tileId":0},"list":[{"code":101,"indent":0,"parameters":["SF_People1",2,0,2]},{"code":401,"indent":0,"parameters":["Hier gibt es wirklich ein paar interessante"]},{"code":401,"indent":0,"parameters":["Magazine. Das \"Sternchen\", der "]},{"code":401,"indent":0,"parameters":["\"Wirtschaftsmonat\" und das \"Foto der Frau\"."]},{"code":0,"indent":0,"parameters":[]}],"moveFrequency":3,"moveRoute":{"list":[{"code":0,"parameters":[]}],"repeat":true,"skippable":false,"wait":false},"moveSpeed":3,"moveType":0,"priorityType":1,"stepAnime":false,"through":false,"trigger":0,"walkAnime":true}],"x":12,"y":9},
{"id":21,"name":"EV021","note":"","pages":[{"conditions":{"actorId":1,"actorValid":false,"itemId":1,"itemValid":false,"selfSwitchCh":"A","selfSwitchValid":false,"switch1Id":1,"switch1Valid":false,"switch2Id":1,"switch2Valid":false,"variableId":1,"variableValid":false,"variableValue":0},"directionFix":false,"image":{"characterIndex":0,"characterName":"","direction":2,"pattern":0,"tileId":0},"list":[{"code":101,"indent":0,"parameters":["SF_People1",2,0,2]},{"code":401,"indent":0,"parameters":["Hier gibt es wirklich ein paar interessante"]},{"code":401,"indent":0,"parameters":["Magazine. Das \"Sternchen\", der "]},{"code":401,"indent":0,"parameters":["\"Wirtschaftsmonat\" und das \"Foto der Frau\"."]},{"code":0,"indent":0,"parameters":[]}],"moveFrequency":3,"moveRoute":{"list":[{"code":0,"parameters":[]}],"repeat":true,"skippable":false,"wait":false},"moveSpeed":3,"moveType":0,"priorityType":1,"stepAnime":false,"through":false,"trigger":0,"walkAnime":true}],"x":12,"y":10}
]
}